Teachers have it Tough
…
---

class: split-40
count: false

.column[.content[

```r
*student_ratio
```
]]
.column[.content[

```
  # A tibble: 5,189 x 8
     edulit_ind indicator country_code country  year student_ratio flag_codes
     <chr>      <chr>     <chr>        <chr>   <int>         <dbl> <chr>     
   1 PTRHC_2    Lower Se… MRT          Maurit…  2013         56.6  <NA>      
   2 PTRHC_2    Lower Se… MRT          Maurit…  2014         51.9  <NA>      
   3 PTRHC_2    Lower Se… MRT          Maurit…  2015         53.2  <NA>      
   4 PTRHC_2    Lower Se… MRT          Maurit…  2016         38.2  <NA>      
   5 PTRHC_1    Primary … COD          Democr…  2012         34.7  <NA>      
   6 PTRHC_1    Primary … COD          Democr…  2013         37.1  <NA>      
   7 PTRHC_1    Primary … COD          Democr…  2014         35.3  <NA>      
   8 PTRHC_1    Primary … COD          Democr…  2015         33.2  <NA>      
   9 PTRHC_3    Upper Se… SYR          Syrian…  2013          8.47 <NA>      
  10 PTRHC_02   Pre-Prim… GNQ          Equato…  2012         17.5  <NA>      
  # … with 5,179 more rows, and 1 more variable: flags <chr>
```
…
.column[.content[

```r
student_ratio %>%
* select(country, student_ratio, indicator)
```
]]
.column[.content[

```
  # A tibble: 5,189 x 3
     country                          student_ratio indicator                
     <chr>                                    <dbl> <chr>                    
   1 Mauritania                               56.6  Lower Secondary Education
   2 Mauritania                               51.9  Lower Secondary Education
   3 Mauritania                               53.2  Lower Secondary Education
   4 Mauritania                               38.2  Lower Secondary Education
   5 Democratic Republic of the Congo         34.7  Primary Education        
   6 Democratic Republic of the Congo         37.1  Primary Education        
   7 Democratic Republic of the Congo         35.3  Primary Education        
   8 Democratic Republic of the Congo         33.2  Primary Education        
   9 Syrian Arab Republic                      8.47 Upper Secondary Education
  10 Equatorial Guinea                        17.5  Pre-Primary Education    
  # … with 5,179 more rows
```
…
.column[.content[

```r
student_ratio %>%
  select(country, student_ratio, indicator) %>%
* filter(indicator == "Tertiary Education")
```
]]
.column[.content[

```
  # A tibble: 550 x 3
     country student_ratio indicator         
     <chr>           <dbl> <chr>             
   1 Palau            8.22 Tertiary Education
   2 Sweden          14.0  Tertiary Education
   3 Sweden          13.4  Tertiary Education
   4 Sweden          12.9  Tertiary Education
   5 Sweden          12.6  Tertiary Education
   6 Sweden          12.4  Tertiary Education
   7 Belgium         16.6  Tertiary Education
   8 Belgium         16.3  Tertiary Education
   9 Belgium         17.3  Tertiary Education
  10 Belgium         17.6  Tertiary Education
  # … with 540 more rows
```
…
.column[.content[

```r
student_ratio %>%
  select(country, student_ratio, indicator) %>%
  filter(indicator == "Tertiary Education") %>%
* group_by(country)
```
]]
.column[.content[

```
  # A tibble: 550 x 3
  # Groups:   country [148]
     country student_ratio indicator         
     <chr>           <dbl> <chr>             
   1 Palau            8.22 Tertiary Education
   2 Sweden          14.0  Tertiary Education
   3 Sweden          13.4  Tertiary Education
   4 Sweden          12.9  Tertiary Education
   5 Sweden          12.6  Tertiary Education
   6 Sweden          12.4  Tertiary Education
   7 Belgium         16.6  Tertiary Education
   8 Belgium         16.3  Tertiary Education
   9 Belgium         17.3  Tertiary Education
  10 Belgium         17.6  Tertiary Education
  # … with 540 more rows
```
…
```r
student_ratio %>%
  select(country, student_ratio, indicator) %>%
  filter(indicator == "Tertiary Education") %>%
  group_by(country) %>%
* summarise(student_ratio =
*             mean(student_ratio,
*                  na.rm = TRUE))
```
]]
.column[.content[

```
  # A tibble: 148 x 2
     country             student_ratio
     <chr>                       <dbl>
   1 Afghanistan                 22.7 
   2 Albania                     19.9 
   3 Algeria                     25.2 
   4 Andorra                      4.23
   5 Angola                      25.5 
   6 Antigua and Barbuda          8.18
   7 Armenia                      7.13
   8 Aruba                       10.6 
   9 Austria                      7.37
  10 Azerbaijan                   8.95
  # … with 138 more rows
```
…
```r
student_ratio %>%
  select(country, student_ratio, indicator) %>%
  filter(indicator == "Tertiary Education") %>%
  group_by(country) %>%
  summarise(student_ratio =
              mean(student_ratio,
                   na.rm = TRUE)) %>%
* ungroup()
```
]]
.column[.content[

```
  # A tibble: 148 x 2
     country             student_ratio
     <chr>                       <dbl>
   1 Afghanistan                 22.7 
   2 Albania                     19.9 
   3 Algeria                     25.2 
   4 Andorra                      4.23
   5 Angola                      25.5 
   6 Antigua and Barbuda          8.18
   7 Armenia                      7.13
   8 Aruba                       10.6 
   9 Austria                      7.37
  10 Azerbaijan                   8.95
  # … with 138 more rows
```
…
```
  # A tibble: 146 x 2
     country             student_ratio
     <chr>                       <dbl>
   1 Afghanistan                 22.7 
   2 Albania                     19.9 
   3 Algeria                     25.2 
   4 Andorra                      4.23
   5 Angola                      25.5 
   6 Antigua and Barbuda          8.18
   7 Armenia                      7.13
   8 Aruba                       10.6 
   9 Austria                      7.37
  10 Azerbaijan                   8.95
  # … with 136 more rows
```
…
```
  # A tibble: 146 x 2
     region              student_ratio
     <chr>                       <dbl>
   1 Afghanistan                 22.7 
   2 Albania                     19.9 
   3 Algeria                     25.2 
   4 Andorra                      4.23
   5 Angola                      25.5 
   6 Antigua and Barbuda          8.18
   7 Armenia                      7.13
   8 Aruba                       10.6 
   9 Austria                      7.37
  10 Azerbaijan                   8.95
  # … with 136 more rows
```
…
```
  # A tibble: 94,703 x 7
     region      student_ratio  long   lat group order subregion
     <chr>               <dbl> <dbl> <dbl> <dbl> <int> <chr>    
   1 Afghanistan          22.7  74.9  37.2     2    12 <NA>     
   2 Afghanistan          22.7  74.8  37.2     2    13 <NA>     
   3 Afghanistan          22.7  74.8  37.2     2    14 <NA>     
   4 Afghanistan          22.7  74.7  37.3     2    15 <NA>     
   5 Afghanistan          22.7  74.7  37.3     2    16 <NA>     
   6 Afghanistan          22.7  74.7  37.3     2    17 <NA>     
   7 Afghanistan          22.7  74.6  37.2     2    18 <NA>     
   8 Afghanistan          22.7  74.4  37.2     2    19 <NA>     
   9 Afghanistan          22.7  74.4  37.1     2    20 <NA>     
  10 Afghanistan          22.7  74.5  37.1     2    21 <NA>     
  # … with 94,693 more rows
```
…
