UFOs
…
---

class: split-40
count: false
.column[.content[

```r
*ufo_sightings
```
]]
.column[.content[

```
  # A tibble: 80,332 x 11
     date_time city_area state country ufo_shape encounter_length
     <chr>     <chr>     <chr> <chr>   <chr>                <int>
   1 10/10/19… san marc… tx    us      cylinder              2700
   2 10/10/19… lackland… tx    <NA>    light                 7200
   3 10/10/19… chester … <NA>  gb      circle                  20
   4 10/10/19… edna      tx    us      circle                  20
   5 10/10/19… kaneohe   hi    us      light                  900
   6 10/10/19… bristol   tn    us      sphere                 300
   7 10/10/19… penarth … <NA>  gb      circle                 180
   8 10/10/19… norwalk   ct    us      disk                  1200
   9 10/10/19… pell city al    us      disk                   180
  10 10/10/19… live oak  fl    us      disk                   120
  # … with 80,322 more rows, and 5 more variables:
  #   described_encounter_length <chr>, description <chr>,
  #   date_documented <chr>, latitude <dbl>, longitude <dbl>
```
…
```r
ufo_sightings %>%
* # mutate(hoax = ifelse(grepl("hoax", tolower(description)), 1, 0),
* # n = 1:n()) %>%
* mutate(date_documented = as.Date(date_documented, "%m/%d/%Y"),
*        date_time = as.Date(date_time, "%m/%d/%Y"))
```
]]
.column[.content[

```
  # A tibble: 80,332 x 11
     date_time  city_area state country ufo_shape encounter_length
     <date>     <chr>     <chr> <chr>   <chr>                <int>
   1 1949-10-10 san marc… tx    us      cylinder              2700
   2 1949-10-10 lackland… tx    <NA>    light                 7200
   3 1955-10-10 chester … <NA>  gb      circle                  20
   4 1956-10-10 edna      tx    us      circle                  20
   5 1960-10-10 kaneohe   hi    us      light                  900
   6 1961-10-10 bristol   tn    us      sphere                 300
   7 1965-10-10 penarth … <NA>  gb      circle                 180
   8 1965-10-10 norwalk   ct    us      disk                  1200
   9 1966-10-10 pell city al    us      disk                   180
  10 1966-10-10 live oak  fl    us      disk                   120
  # … with 80,322 more rows, and 5 more variables:
  #   described_encounter_length <chr>, description <chr>,
  #   date_documented <date>, latitude <dbl>, longitude <dbl>
```
…
```r
ufo_sightings %>%
  # mutate(hoax = ifelse(grepl("hoax", tolower(description)), 1, 0),
  # n = 1:n()) %>%
  mutate(date_documented = as.Date(date_documented, "%m/%d/%Y"),
         date_time = as.Date(date_time, "%m/%d/%Y")) %>%
* select(date_time, date_documented)
```
]]
.column[.content[

```
  # A tibble: 80,332 x 2
     date_time  date_documented
     <date>     <date>         
   1 1949-10-10 2004-04-27     
   2 1949-10-10 2005-12-16     
   3 1955-10-10 2008-01-21     
   4 1956-10-10 2004-01-17     
   5 1960-10-10 2004-01-22     
   6 1961-10-10 2007-04-27     
   7 1965-10-10 2006-02-14     
   8 1965-10-10 1999-10-02     
   9 1966-10-10 2009-03-19     
  10 1966-10-10 2005-05-11     
  # … with 80,322 more rows
```
…
```
  # A tibble: 80,332 x 4
     date_time  date_documented ym1    ym2   
     <date>     <date>          <chr>  <chr> 
   1 1949-10-10 2004-04-27      194910 200404
   2 1949-10-10 2005-12-16      194910 200512
   3 1955-10-10 2008-01-21      195510 200801
   4 1956-10-10 2004-01-17      195610 200401
   5 1960-10-10 2004-01-22      196010 200401
   6 1961-10-10 2007-04-27      196110 200704
   7 1965-10-10 2006-02-14      196510 200602
   8 1965-10-10 1999-10-02      196510 199910
   9 1966-10-10 2009-03-19      196610 200903
  10 1966-10-10 2005-05-11      196610 200505
  # … with 80,322 more rows
```
…
```
  # A tibble: 80,332 x 4
  # Groups:   ym1, ym2 [13,249]
     date_time  date_documented ym1    ym2   
     <date>     <date>          <chr>  <chr> 
   1 1949-10-10 2004-04-27      194910 200404
   2 1949-10-10 2005-12-16      194910 200512
   3 1955-10-10 2008-01-21      195510 200801
   4 1956-10-10 2004-01-17      195610 200401
   5 1960-10-10 2004-01-22      196010 200401
   6 1961-10-10 2007-04-27      196110 200704
   7 1965-10-10 2006-02-14      196510 200602
   8 1965-10-10 1999-10-02      196510 199910
   9 1966-10-10 2009-03-19      196610 200903
  10 1966-10-10 2005-05-11      196610 200505
  # … with 80,322 more rows
```
…
```
  # A tibble: 13,249 x 3
  # Groups:   ym1 [?]
     ym1    ym2        n
     <chr>  <chr>  <int>
   1 190611 200212     1
   2 191001 200509     1
   3 191006 200504     1
   4 191604 200403     1
   5 192006 200905     1
   6 192512 200505     1
   7 192907 200208     1
   8 193006 200501     1
   9 193102 200406     1
  10 193106 200602     1
  # … with 13,239 more rows
```
…
```
  # A tibble: 13,249 x 3
     ym1    ym2        n
     <chr>  <chr>  <int>
   1 190611 200212     1
   2 191001 200509     1
   3 191006 200504     1
   4 191604 200403     1
   5 192006 200905     1
   6 192512 200505     1
   7 192907 200208     1
   8 193006 200501     1
   9 193102 200406     1
  10 193106 200602     1
  # … with 13,239 more rows
```
…
```
  # A tibble: 13,249 x 3
     ym1        ym2            n
     <date>     <date>     <int>
   1 1906-11-01 2002-12-01     1
   2 1910-01-01 2005-09-01     1
   3 1910-06-01 2005-04-01     1
   4 1916-04-01 2004-03-01     1
   5 1920-06-01 2009-05-01     1
   6 1925-12-01 2005-05-01     1
   7 1929-07-01 2002-08-01     1
   8 1930-06-01 2005-01-01     1
   9 1931-02-01 2004-06-01     1
  10 1931-06-01 2006-02-01     1
  # … with 13,239 more rows
```
…
