UNGA Votes
…
```r
library(tidyverse)  
library(unvotes)  
*un_roll_calls
```
]]
.column[.content[

```
# A tibble: 5,429 x 9
    rcid session importantvote date       unres  amend  para short  descr  
   <int>   <dbl>         <dbl> <date>     <chr>  <dbl> <dbl> <chr>  <chr>  
 1     3       1             0 1946-01-01 R/1/66     1     0 AMEND… TO ADO…
 2     4       1             0 1946-01-02 R/1/79     0     0 SECUR… TO ADO…
 3     5       1             0 1946-01-04 R/1/98     0     0 VOTIN… "TO AD…
 4     6       1             0 1946-01-04 R/1/1…     0     0 DECLA… TO ADO…
 5     7       1             0 1946-01-02 R/1/2…     1     0 GENER… "TO AD…
 6     8       1             0 1946-01-05 R/1/2…     1     0 ECOSO… TO ADO…
 7     9       1             0 1946-02-05 R/1/3…     0     0 POST-… TO OPE…
 8    10       1             0 1946-02-05 R/1/3…     1     1 U.N. … "TO AD…
 9    11       1             0 1946-02-05 R/1/3…     0     0 TRUST… TO ADO…
10    12       1             0 1946-02-06 R/1/3…     1     1 COUNC… TO ADO…
# … with 5,419 more rows
```
…
```r
library(tidyverse)  
library(unvotes)  
un_roll_calls %>%  
* select(rcid, date)
```
]]
.column[.content[

```
# A tibble: 5,429 x 2
    rcid date      
   <int> <date>    
 1     3 1946-01-01
 2     4 1946-01-02
 3     5 1946-01-04
 4     6 1946-01-04
 5     7 1946-01-02
 6     8 1946-01-05
 7     9 1946-02-05
 8    10 1946-02-05
 9    11 1946-02-05
10    12 1946-02-06
# … with 5,419 more rows
```
…
```r
library(tidyverse)  
library(unvotes)  
un_roll_calls %>%  
  select(rcid, date) %>%  
* mutate(year = lubridate::year(date))
```
]]
.column[.content[

```
# A tibble: 5,429 x 3
    rcid date        year
   <int> <date>     <dbl>
 1     3 1946-01-01  1946
 2     4 1946-01-02  1946
 3     5 1946-01-04  1946
 4     6 1946-01-04  1946
 5     7 1946-01-02  1946
 6     8 1946-01-05  1946
 7     9 1946-02-05  1946
 8    10 1946-02-05  1946
 9    11 1946-02-05  1946
10    12 1946-02-06  1946
# … with 5,419 more rows
```
…
```r
library(tidyverse)  
library(unvotes)  
un_roll_calls %>%  
  select(rcid, date) %>%  
  mutate(year = lubridate::year(date)) %>%  
* mutate(month = lubridate::month(date))
```
]]
.column[.content[

```
# A tibble: 5,429 x 4
    rcid date        year month
   <int> <date>     <dbl> <dbl>
 1     3 1946-01-01  1946     1
 2     4 1946-01-02  1946     1
 3     5 1946-01-04  1946     1
 4     6 1946-01-04  1946     1
 5     7 1946-01-02  1946     1
 6     8 1946-01-05  1946     1
 7     9 1946-02-05  1946     2
 8    10 1946-02-05  1946     2
 9    11 1946-02-05  1946     2
10    12 1946-02-06  1946     2
# … with 5,419 more rows
```
…
```r
library(tidyverse)  
library(unvotes)  
un_roll_calls %>%  
  select(rcid, date) %>%  
  mutate(year = lubridate::year(date)) %>%  
  mutate(month = lubridate::month(date)) %>%  
* mutate(indicator = 1)
```
]]
.column[.content[

```
# A tibble: 5,429 x 5
    rcid date        year month indicator
   <int> <date>     <dbl> <dbl>     <dbl>
 1     3 1946-01-01  1946     1         1
 2     4 1946-01-02  1946     1         1
 3     5 1946-01-04  1946     1         1
 4     6 1946-01-04  1946     1         1
 5     7 1946-01-02  1946     1         1
 6     8 1946-01-05  1946     1         1
 7     9 1946-02-05  1946     2         1
 8    10 1946-02-05  1946     2         1
 9    11 1946-02-05  1946     2         1
10    12 1946-02-06  1946     2         1
# … with 5,419 more rows
```
…
```r
library(tidyverse)  
library(unvotes)  
un_roll_calls %>%  
  select(rcid, date) %>%  
  mutate(year = lubridate::year(date)) %>%  
  mutate(month = lubridate::month(date)) %>%  
  mutate(indicator = 1) %>%  
* group_by(year, month)
```
]]
.column[.content[

```
# A tibble: 5,429 x 5
# Groups:   year, month [288]
    rcid date        year month indicator
   <int> <date>     <dbl> <dbl>     <dbl>
 1     3 1946-01-01  1946     1         1
 2     4 1946-01-02  1946     1         1
 3     5 1946-01-04  1946     1         1
 4     6 1946-01-04  1946     1         1
 5     7 1946-01-02  1946     1         1
 6     8 1946-01-05  1946     1         1
 7     9 1946-02-05  1946     2         1
 8    10 1946-02-05  1946     2         1
 9    11 1946-02-05  1946     2         1
10    12 1946-02-06  1946     2         1
# … with 5,419 more rows
```
…
```
# A tibble: 288 x 3
# Groups:   year [69]
    year month number_of_role_calls
   <dbl> <dbl>                <dbl>
 1  1946     1                    6
 2  1946     2                   11
 3  1946    12                   26
 4  1947     5                    6
 5  1947     9                    1
 6  1947    10                    5
 7  1947    11                   26
 8  1948     5                    7
 9  1948     9                    2
10  1948    10                    1
# … with 278 more rows
```
…
```
# A tibble: 840 x 3
# Groups:   year [70]
    year month number_of_role_calls
   <dbl> <dbl>                <dbl>
 1  1946     1                    6
 2  1946     2                   11
 3  1946    12                   26
 4  1947     5                    6
 5  1947     9                    1
 6  1947    10                    5
 7  1947    11                   26
 8  1948     5                    7
 9  1948     9                    2
10  1948    10                    1
# … with 830 more rows
```
…
```
# A tibble: 840 x 3
# Groups:   year [70]
    year month number_of_role_calls
   <dbl> <dbl>                <dbl>
 1  1946     1                    6
 2  1946     2                   11
 3  1946    12                   26
 4  1947     5                    6
 5  1947     9                    1
 6  1947    10                    5
 7  1947    11                   26
 8  1948     5                    7
 9  1948     9                    2
10  1948    10                    1
# … with 830 more rows
```
…
```
# A tibble: 840 x 4
# Groups:   year [70]
    year month number_of_role_calls decade
   <dbl> <dbl>                <dbl> <chr> 
 1  1946     1                    6 1940  
 2  1946     2                   11 1940  
 3  1946    12                   26 1940  
 4  1947     5                    6 1940  
 5  1947     9                    1 1940  
 6  1947    10                    5 1940  
 7  1947    11                   26 1940  
 8  1948     5                    7 1940  
 9  1948     9                    2 1940  
10  1948    10                    1 1940  
# … with 830 more rows
```
…
```
# A tibble: 840 x 4
# Groups:   year [70]
    year month number_of_role_calls decade
   <dbl> <dbl>                <dbl> <chr> 
 1  1946     1                    6 1940's
 2  1946     2                   11 1940's
 3  1946    12                   26 1940's
 4  1947     5                    6 1940's
 5  1947     9                    1 1940's
 6  1947    10                    5 1940's
 7  1947    11                   26 1940's
 8  1948     5                    7 1940's
 9  1948     9                    2 1940's
10  1948    10                    1 1940's
# … with 830 more rows
```
…
