Introduction to the Bootstrap
…
.column[.content[

```r
set.seed(2019)
*tibble(x = rnorm(30))
```
]]
.column[.content.center[

```
  # A tibble: 30 x 1
          x
      <dbl>
   1  0.739
   2 -0.515
   3 -1.64 
   4  0.916
   5 -1.27 
   6  0.738
   7 -0.783
   8  0.509
   9 -1.49 
  10 -0.319
  # … with 20 more rows
```
…
.column[.content[

```r
set.seed(2019)
tibble(x = rnorm(30)) %>% 
* mutate(y = x * .4 + rnorm(30))
```
]]
.column[.content.center[

```
  # A tibble: 30 x 2
          x       y
      <dbl>   <dbl>
   1  0.739 -0.639 
   2 -0.515  0.424 
   3 -1.64   0.105 
   4  0.916 -0.145 
   5 -1.27   0.495 
   6  0.738 -0.0881
   7 -0.783 -0.790 
   8  0.509  0.458 
   9 -1.49  -1.76  
  10 -0.319 -0.566 
  # … with 20 more rows
```
…
.column[.content[

```r
set.seed(2019)
tibble(x = rnorm(30)) %>% 
  mutate(y = x * .4 + rnorm(30)) %>% 
* mutate(id = 1:n())
```
]]
.column[.content.center[

```
  # A tibble: 30 x 3
          x       y    id
      <dbl>   <dbl> <int>
   1  0.739 -0.639      1
   2 -0.515  0.424      2
   3 -1.64   0.105      3
   4  0.916 -0.145      4
   5 -1.27   0.495      5
   6  0.738 -0.0881     6
   7 -0.783 -0.790      7
   8  0.509  0.458      8
   9 -1.49  -1.76       9
  10 -0.319 -0.566     10
  # … with 20 more rows
```
…
---

class: split-40
count: false

.column[.content[

```r
*my_data
```
]]
.column[.content.center[

```
  # A tibble: 30 x 3
          x       y    id
      <dbl>   <dbl> <int>
   1  0.739 -0.639      1
   2 -0.515  0.424      2
   3 -1.64   0.105      3
   4  0.916 -0.145      4
   5 -1.27   0.495      5
   6  0.738 -0.0881     6
   7 -0.783 -0.790      7
   8  0.509  0.458      8
   9 -1.49  -1.76       9
  10 -0.319 -0.566     10
  # … with 20 more rows
```
…
.column[.content[

```r
my_data %>% 
* crossing(boot_sample_id = 1:100)
```
]]
.column[.content.center[

```
  # A tibble: 3,000 x 4
         x      y    id boot_sample_id
     <dbl>  <dbl> <int>          <int>
   1 0.739 -0.639     1              1
   2 0.739 -0.639     1              2
   3 0.739 -0.639     1              3
   4 0.739 -0.639     1              4
   5 0.739 -0.639     1              5
   6 0.739 -0.639     1              6
   7 0.739 -0.639     1              7
   8 0.739 -0.639     1              8
   9 0.739 -0.639     1              9
  10 0.739 -0.639     1             10
  # … with 2,990 more rows
```
…
.column[.content[

```r
my_data %>% 
  crossing(boot_sample_id = 1:100) %>% 
* group_by(boot_sample_id)
```
]]
.column[.content.center[

```
  # A tibble: 3,000 x 4
  # Groups:   boot_sample_id [100]
         x      y    id boot_sample_id
     <dbl>  <dbl> <int>          <int>
   1 0.739 -0.639     1              1
   2 0.739 -0.639     1              2
   3 0.739 -0.639     1              3
   4 0.739 -0.639     1              4
   5 0.739 -0.639     1              5
   6 0.739 -0.639     1              6
   7 0.739 -0.639     1              7
   8 0.739 -0.639     1              8
   9 0.739 -0.639     1              9
  10 0.739 -0.639     1             10
  # … with 2,990 more rows
```
…
.column[.content[

```r
my_data %>% 
  crossing(boot_sample_id = 1:100) %>% 
  group_by(boot_sample_id) %>% 
* sample_frac(size = 1,
*             replace = TRUE)
```
]]
.column[.content.center[

```
  # A tibble: 3,000 x 4
  # Groups:   boot_sample_id [100]
          x      y    id boot_sample_id
      <dbl>  <dbl> <int>          <int>
   1  0.316  0.767    15              1
   2 -0.238 -1.82     11              1
   3  0.316  0.767    15              1
   4  2.64   1.08     29              1
   5  0.878  1.21     17              1
   6 -2.26  -1.23     20              1
   7  0.739 -0.639     1              1
   8 -1.12  -0.355    13              1
   9 -0.515  0.424     2              1
  10  0.371  0.354    16              1
  # … with 2,990 more rows
```
…
.column[.content[

```r
my_data %>% 
  crossing(boot_sample_id = 1:100) %>% 
  group_by(boot_sample_id) %>% 
  sample_frac(size = 1, 
              replace = TRUE) %>% 
* group_by(id, boot_sample_id)
```
]]
.column[.content.center[

```
  # A tibble: 3,000 x 4
  # Groups:   id, boot_sample_id [1,883]
           x      y    id boot_sample_id
       <dbl>  <dbl> <int>          <int>
   1 -1.62    0.173    30              1
   2 -0.512  -0.733    26              1
   3 -2.26   -1.23     20              1
   4 -0.515   0.424     2              1
   5  0.0406  0.966    28              1
   6 -1.62    0.173    30              1
   7  0.234   0.167    14              1
   8  0.968   0.151    22              1
   9  0.509   0.458     8              1
  10  0.739  -0.639     1              1
  # … with 2,990 more rows
```
…
```r
my_data %>% 
  crossing(boot_sample_id = 1:100) %>% 
  group_by(boot_sample_id) %>% 
  sample_frac(size = 1, 
              replace = TRUE) %>% 
  group_by(id, boot_sample_id) %>%
* mutate(times_sampled = n())
```
]]
.column[.content.center[

```
  # A tibble: 3,000 x 5
  # Groups:   id, boot_sample_id [1,915]
          x      y    id boot_sample_id times_sampled
      <dbl>  <dbl> <int>          <int>         <int>
   1 -0.512 -0.733    26              1             3
   2  0.234  0.167    14              1             1
   3  0.371  0.354    16              1             1
   4 -1.77  -0.568    18              1             2
   5 -1.64   0.105     3              1             1
   6 -1.80  -1.51     27              1             1
   7  2.64   1.08     29              1             2
   8  1.62   2.37     12              1             1
   9  0.968  0.151    22              1             2
  10 -0.512 -0.733    26              1             3
  # … with 2,990 more rows
```
…
---

class: split-40
count: false

.column[.content[

```r
*boot_samples
```
]]
.column[.content.center[

```
  # A tibble: 3,000 x 5
  # Groups:   id, boot_sample_id [1,931]
          x       y    id boot_sample_id times_sampled
      <dbl>   <dbl> <int>          <int>         <int>
   1 -1.27   0.495      5              1             2
   2 -1.62   0.173     30              1             2
   3 -0.783 -0.790      7              1             4
   4 -1.64   0.105      3              1             1
   5  0.286  0.0613    21              1             3
   6 -1.80  -1.51      27              1             2
   7  2.64   1.08      29              1             1
   8 -1.80  -1.51      27              1             2
   9 -0.783 -0.790      7              1             4
  10  0.738 -0.0881     6              1             1
  # … with 2,990 more rows
```
…
.column[.content[

```r
boot_samples %>% 
* filter(boot_sample_id <= 12)
```
]]
.column[.content.center[

```
  # A tibble: 360 x 5
  # Groups:   id, boot_sample_id [229]
          x       y    id boot_sample_id times_sampled
      <dbl>   <dbl> <int>          <int>         <int>
   1 -1.27   0.495      5              1             2
   2 -1.62   0.173     30              1             2
   3 -0.783 -0.790      7              1             4
   4 -1.64   0.105      3              1             1
   5  0.286  0.0613    21              1             3
   6 -1.80  -1.51      27              1             2
   7  2.64   1.08      29              1             1
   8 -1.80  -1.51      27              1             2
   9 -0.783 -0.790      7              1             4
  10  0.738 -0.0881     6              1             1
  # … with 350 more rows
```
…
---

class: split-40
count: false

.column[.content[

```r
*boot_samples
```
]]
.column[.content.center[

```
  # A tibble: 3,000 x 5
  # Groups:   id, boot_sample_id [1,931]
          x       y    id boot_sample_id times_sampled
      <dbl>   <dbl> <int>          <int>         <int>
   1 -1.27   0.495      5              1             2
   2 -1.62   0.173     30              1             2
   3 -0.783 -0.790      7              1             4
   4 -1.64   0.105      3              1             1
   5  0.286  0.0613    21              1             3
   6 -1.80  -1.51      27              1             2
   7  2.64   1.08      29              1             1
   8 -1.80  -1.51      27              1             2
   9 -0.783 -0.790      7              1             4
  10  0.738 -0.0881     6              1             1
  # … with 2,990 more rows
```
…
.column[.content[

```r
boot_samples %>%
* group_by(boot_sample_id)
```
]]
.column[.content.center[

```
  # A tibble: 3,000 x 5
  # Groups:   boot_sample_id [100]
          x       y    id boot_sample_id times_sampled
      <dbl>   <dbl> <int>          <int>         <int>
   1 -1.27   0.495      5              1             2
   2 -1.62   0.173     30              1             2
   3 -0.783 -0.790      7              1             4
   4 -1.64   0.105      3              1             1
   5  0.286  0.0613    21              1             3
   6 -1.80  -1.51      27              1             2
   7  2.64   1.08      29              1             1
   8 -1.80  -1.51      27              1             2
   9 -0.783 -0.790      7              1             4
  10  0.738 -0.0881     6              1             1
  # … with 2,990 more rows
```
…
.column[.content[

```r
boot_samples %>%
  group_by(boot_sample_id) %>% 
* nest()
```
]]
.column[.content.center[

```
  # A tibble: 100 x 2
     boot_sample_id data             
              <int> <list>           
   1              1 <tibble [30 × 4]>
   2              2 <tibble [30 × 4]>
   3              3 <tibble [30 × 4]>
   4              4 <tibble [30 × 4]>
   5              5 <tibble [30 × 4]>
   6              6 <tibble [30 × 4]>
   7              7 <tibble [30 × 4]>
   8              8 <tibble [30 × 4]>
   9              9 <tibble [30 × 4]>
  10             10 <tibble [30 × 4]>
  # … with 90 more rows
```
…
.column[.content[

```r
boot_samples %>%
  group_by(boot_sample_id) %>% 
  nest() %>% 
* mutate(model = map(data, boot_model)) # model results are summarised in tidy dataframes using broom
```
]]
.column[.content.center[

```
  # A tibble: 100 x 3
     boot_sample_id data              model 
              <int> <list>            <list>
   1              1 <tibble [30 × 4]> <lm>  
   2              2 <tibble [30 × 4]> <lm>  
   3              3 <tibble [30 × 4]> <lm>  
   4              4 <tibble [30 × 4]> <lm>  
   5              5 <tibble [30 × 4]> <lm>  
   6              6 <tibble [30 × 4]> <lm>  
   7              7 <tibble [30 × 4]> <lm>  
   8              8 <tibble [30 × 4]> <lm>  
   9              9 <tibble [30 × 4]> <lm>  
  10             10 <tibble [30 × 4]> <lm>  
  # … with 90 more rows
```
…
---

class: split-40
count: false

.column[.content[

```r
*boot_samples_models
```
]]
.column[.content.center[

```
  # A tibble: 100 x 6
     boot_sample_id data         model  glance        augment      tidy      
              <int> <list>       <list> <list>        <list>       <list>    
   1              1 <tibble [30… <lm>   <df[,11] [1 … <df[,9] [30… <df[,5] […
   2              2 <tibble [30… <lm>   <df[,11] [1 … <df[,9] [30… <df[,5] […
   3              3 <tibble [30… <lm>   <df[,11] [1 … <df[,9] [30… <df[,5] […
   4              4 <tibble [30… <lm>   <df[,11] [1 … <df[,9] [30… <df[,5] […
   5              5 <tibble [30… <lm>   <df[,11] [1 … <df[,9] [30… <df[,5] […
   6              6 <tibble [30… <lm>   <df[,11] [1 … <df[,9] [30… <df[,5] […
   7              7 <tibble [30… <lm>   <df[,11] [1 … <df[,9] [30… <df[,5] […
   8              8 <tibble [30… <lm>   <df[,11] [1 … <df[,9] [30… <df[,5] […
   9              9 <tibble [30… <lm>   <df[,11] [1 … <df[,9] [30… <df[,5] […
  10             10 <tibble [30… <lm>   <df[,11] [1 … <df[,9] [30… <df[,5] […
  # … with 90 more rows
```
…
.column[.content[

```r
boot_samples_models %>% 
* unnest(tidy)
```
]]
.column[.content.center[

```
  # A tibble: 200 x 6
     boot_sample_id term        estimate std.error statistic     p.value
              <int> <chr>          <dbl>     <dbl>     <dbl>       <dbl>
   1              1 (Intercept)   0.0718     0.162     0.442 0.662      
   2              1 x             0.541      0.137     3.94  0.000490   
   3              2 (Intercept)   0.192      0.147     1.30  0.203      
   4              2 x             0.778      0.140     5.56  0.00000608 
   5              3 (Intercept)   0.0225     0.112     0.201 0.843      
   6              3 x             0.661      0.100     6.59  0.000000379
   7              4 (Intercept)  -0.0945     0.136    -0.695 0.493      
   8              4 x             0.407      0.136     3.00  0.00560    
   9              5 (Intercept)  -0.0695     0.153    -0.453 0.654      
  10              5 x             0.495      0.130     3.82  0.000679   
  # … with 190 more rows
```
…
.column[.content[

```r
boot_samples_models %>% 
  unnest(tidy) %>% 
* filter(term == "x")
```
]]
.column[.content.center[

```
  # A tibble: 100 x 6
     boot_sample_id term  estimate std.error statistic     p.value
              <int> <chr>    <dbl>     <dbl>     <dbl>       <dbl>
   1              1 x        0.541     0.137      3.94 0.000490   
   2              2 x        0.778     0.140      5.56 0.00000608 
   3              3 x        0.661     0.100      6.59 0.000000379
   4              4 x        0.407     0.136      3.00 0.00560    
   5              5 x        0.495     0.130      3.82 0.000679   
   6              6 x        0.445     0.108      4.13 0.000292   
   7              7 x        0.423     0.111      3.80 0.000709   
   8              8 x        0.400     0.111      3.59 0.00125    
   9              9 x        0.626     0.148      4.24 0.000218   
  10             10 x        0.536     0.142      3.76 0.000788   
  # … with 90 more rows
```
…
<img src="bootstrap_files/figure-html/confintplus-1.png" width="100%" />

class: split-40
count: false

.column[.content[

```r
*boot_samples_models
```
]]
.column[.content.center[

```
  # A tibble: 100 x 6
     boot_sample_id data         model  glance        augment      tidy      
              <int> <list>       <list> <list>        <list>       <list>    
   1              1 <tibble [30… <lm>   <df[,11] [1 … <df[,9] [30… <df[,5] […
   2              2 <tibble [30… <lm>   <df[,11] [1 … <df[,9] [30… <df[,5] […
   3              3 <tibble [30… <lm>   <df[,11] [1 … <df[,9] [30… <df[,5] […
   4              4 <tibble [30… <lm>   <df[,11] [1 … <df[,9] [30… <df[,5] […
   5              5 <tibble [30… <lm>   <df[,11] [1 … <df[,9] [30… <df[,5] […
   6              6 <tibble [30… <lm>   <df[,11] [1 … <df[,9] [30… <df[,5] […
   7              7 <tibble [30… <lm>   <df[,11] [1 … <df[,9] [30… <df[,5] […
   8              8 <tibble [30… <lm>   <df[,11] [1 … <df[,9] [30… <df[,5] […
   9              9 <tibble [30… <lm>   <df[,11] [1 … <df[,9] [30… <df[,5] […
  10             10 <tibble [30… <lm>   <df[,11] [1 … <df[,9] [30… <df[,5] […
  # … with 90 more rows
```
…
.column[.content[

```r
boot_samples_models %>% 
* unnest(tidy)
```
]]
.column[.content.center[

```
  # A tibble: 200 x 6
     boot_sample_id term        estimate std.error statistic     p.value
              <int> <chr>          <dbl>     <dbl>     <dbl>       <dbl>
   1              1 (Intercept)   0.0718     0.162     0.442 0.662      
   2              1 x             0.541      0.137     3.94  0.000490   
   3              2 (Intercept)   0.192      0.147     1.30  0.203      
   4              2 x             0.778      0.140     5.56  0.00000608 
   5              3 (Intercept)   0.0225     0.112     0.201 0.843      
   6              3 x             0.661      0.100     6.59  0.000000379
   7              4 (Intercept)  -0.0945     0.136    -0.695 0.493      
   8              4 x             0.407      0.136     3.00  0.00560    
   9              5 (Intercept)  -0.0695     0.153    -0.453 0.654      
  10              5 x             0.495      0.130     3.82  0.000679   
  # … with 190 more rows
```
…
.column[.content[

```r
boot_samples_models %>% 
  unnest(tidy) %>% 
* select(boot_sample_id, estimate, term)
```
]]
.column[.content.center[

```
  # A tibble: 200 x 3
     boot_sample_id estimate term       
              <int>    <dbl> <chr>      
   1              1   0.0718 (Intercept)
   2              1   0.541  x          
   3              2   0.192  (Intercept)
   4              2   0.778  x          
   5              3   0.0225 (Intercept)
   6              3   0.661  x          
   7              4  -0.0945 (Intercept)
   8              4   0.407  x          
   9              5  -0.0695 (Intercept)
  10              5   0.495  x          
  # … with 190 more rows
```
…
.column[.content[

```r
boot_samples_models %>% 
  unnest(tidy) %>% 
  select(boot_sample_id, estimate, term) %>% 
* spread(key = term, value = estimate)
```
]]
.column[.content.center[

```
  # A tibble: 100 x 3
     boot_sample_id `(Intercept)`     x
              <int>         <dbl> <dbl>
   1              1        0.0718 0.541
   2              2        0.192  0.778
   3              3        0.0225 0.661
   4              4       -0.0945 0.407
   5              5       -0.0695 0.495
   6              6        0.0425 0.445
   7              7        0.0987 0.423
   8              8       -0.0692 0.400
   9              9       -0.178  0.626
  10             10       -0.112  0.536
  # … with 90 more rows
```
…
