wbstats flipbook
…
```r
wb_data_raw %>%  
* # just using as_tibble to clean up the look of the data
* as_tibble()
```
]]
.column[.content[

```
## # A tibble: 6,851 x 7
##    iso3c date  iso2c country AG.LND.AGRI.ZS NY.GDP.PCAP.PP.CD SP.POP.GROW
##    <chr> <chr> <chr> <chr>            <dbl>             <dbl>       <dbl>
##  1 ABW   1987  AW    Aruba             11.1               NA      NA     
##  2 ABW   1988  AW    Aruba             11.1               NA      NA     
##  3 ABW   1989  AW    Aruba             11.1               NA      -0.0770
##  4 ABW   1990  AW    Aruba             11.1            24101.      1.81  
##  5 ABW   1991  AW    Aruba             11.1            25871.      3.90  
##  6 ABW   1992  AW    Aruba             11.1            26533.      5.44  
##  7 ABW   1993  AW    Aruba             11.1            27431.      6.07  
##  8 ABW   1994  AW    Aruba             11.1            28657.      5.63  
##  9 ABW   1995  AW    Aruba             11.1            28649.      4.62  
## 10 ABW   1996  AW    Aruba             11.1            28499.      3.52  
## # … with 6,841 more rows
```
…
```r
wb_data_raw %>%  
  # just using as_tibble to clean up the look of the data
  as_tibble() %>%  
* # replace current names to something more intelligable
* rename(pop_grow = SP.POP.GROW)
```
]]
.column[.content[

```
## # A tibble: 6,851 x 7
##    iso3c date  iso2c country AG.LND.AGRI.ZS NY.GDP.PCAP.PP.CD pop_grow
##    <chr> <chr> <chr> <chr>            <dbl>             <dbl>    <dbl>
##  1 ABW   1987  AW    Aruba             11.1               NA   NA     
##  2 ABW   1988  AW    Aruba             11.1               NA   NA     
##  3 ABW   1989  AW    Aruba             11.1               NA   -0.0770
##  4 ABW   1990  AW    Aruba             11.1            24101.   1.81  
##  5 ABW   1991  AW    Aruba             11.1            25871.   3.90  
##  6 ABW   1992  AW    Aruba             11.1            26533.   5.44  
##  7 ABW   1993  AW    Aruba             11.1            27431.   6.07  
##  8 ABW   1994  AW    Aruba             11.1            28657.   5.63  
##  9 ABW   1995  AW    Aruba             11.1            28649.   4.62  
## 10 ABW   1996  AW    Aruba             11.1            28499.   3.52  
## # … with 6,841 more rows
```
…
```r
wb_data_raw %>%  
  # just using as_tibble to clean up the look of the data
  as_tibble() %>%  
  # replace current names to something more intelligable
  rename(pop_grow = SP.POP.GROW) %>%  
* rename(gdp_per_capita = NY.GDP.PCAP.PP.CD)
```
]]
.column[.content[

```
## # A tibble: 6,851 x 7
##    iso3c date  iso2c country AG.LND.AGRI.ZS gdp_per_capita pop_grow
##    <chr> <chr> <chr> <chr>            <dbl>          <dbl>    <dbl>
##  1 ABW   1987  AW    Aruba             11.1            NA   NA     
##  2 ABW   1988  AW    Aruba             11.1            NA   NA     
##  3 ABW   1989  AW    Aruba             11.1            NA   -0.0770
##  4 ABW   1990  AW    Aruba             11.1         24101.   1.81  
##  5 ABW   1991  AW    Aruba             11.1         25871.   3.90  
##  6 ABW   1992  AW    Aruba             11.1         26533.   5.44  
##  7 ABW   1993  AW    Aruba             11.1         27431.   6.07  
##  8 ABW   1994  AW    Aruba             11.1         28657.   5.63  
##  9 ABW   1995  AW    Aruba             11.1         28649.   4.62  
## 10 ABW   1996  AW    Aruba             11.1         28499.   3.52  
## # … with 6,841 more rows
```
…
```r
wb_data_raw %>%  
  # just using as_tibble to clean up the look of the data
  as_tibble() %>%  
  # replace current names to something more intelligable
  rename(pop_grow = SP.POP.GROW) %>%  
  rename(gdp_per_capita = NY.GDP.PCAP.PP.CD) %>%  
* rename(percent_ag_land = AG.LND.AGRI.ZS)
```
]]
.column[.content[

```
## # A tibble: 6,851 x 7
##    iso3c date  iso2c country percent_ag_land gdp_per_capita pop_grow
##    <chr> <chr> <chr> <chr>             <dbl>          <dbl>    <dbl>
##  1 ABW   1987  AW    Aruba              11.1            NA   NA     
##  2 ABW   1988  AW    Aruba              11.1            NA   NA     
##  3 ABW   1989  AW    Aruba              11.1            NA   -0.0770
##  4 ABW   1990  AW    Aruba              11.1         24101.   1.81  
##  5 ABW   1991  AW    Aruba              11.1         25871.   3.90  
##  6 ABW   1992  AW    Aruba              11.1         26533.   5.44  
##  7 ABW   1993  AW    Aruba              11.1         27431.   6.07  
##  8 ABW   1994  AW    Aruba              11.1         28657.   5.63  
##  9 ABW   1995  AW    Aruba              11.1         28649.   4.62  
## 10 ABW   1996  AW    Aruba              11.1         28499.   3.52  
## # … with 6,841 more rows
```
…
```r
wb_data_raw %>%  
  # just using as_tibble to clean up the look of the data
  as_tibble() %>%  
  # replace current names to something more intelligable
  rename(pop_grow = SP.POP.GROW) %>%  
  rename(gdp_per_capita = NY.GDP.PCAP.PP.CD) %>%  
  rename(percent_ag_land = AG.LND.AGRI.ZS) %>%  
* mutate(date = as.numeric(date))
```
]]
.column[.content[

```
## # A tibble: 6,851 x 7
##    iso3c  date iso2c country percent_ag_land gdp_per_capita pop_grow
##    <chr> <dbl> <chr> <chr>             <dbl>          <dbl>    <dbl>
##  1 ABW    1987 AW    Aruba              11.1            NA   NA     
##  2 ABW    1988 AW    Aruba              11.1            NA   NA     
##  3 ABW    1989 AW    Aruba              11.1            NA   -0.0770
##  4 ABW    1990 AW    Aruba              11.1         24101.   1.81  
##  5 ABW    1991 AW    Aruba              11.1         25871.   3.90  
##  6 ABW    1992 AW    Aruba              11.1         26533.   5.44  
##  7 ABW    1993 AW    Aruba              11.1         27431.   6.07  
##  8 ABW    1994 AW    Aruba              11.1         28657.   5.63  
##  9 ABW    1995 AW    Aruba              11.1         28649.   4.62  
## 10 ABW    1996 AW    Aruba              11.1         28499.   3.52  
## # … with 6,841 more rows
```
…
