flipbookr building blocks
…
```
# A tibble: 108 x 15
# Groups:   line [14]
    line  col1 line2  col2    id parent token terminal text  open_par closed_par
   <int> <int> <int> <int> <int>  <int> <chr> <lgl>    <chr> <lgl>    <lgl>     
 1     1     1    14     9   137      0 expr  FALSE    ""    FALSE    FALSE     
 2     1     1    13     6   131    137 expr  FALSE    ""    FALSE    FALSE     
 3     1     1     9    25   105    131 expr  FALSE    ""    FALSE    FALSE     
 4     1     1     8    23    90    105 expr  FALSE    ""    FALSE    FALSE     
 5     1     1     7    24    75     90 expr  FALSE    ""    FALSE    FALSE     
 6     1     1     5    15    59     75 expr  FALSE    ""    FALSE    FALSE     
 7     1     1     4    16    45     59 expr  FALSE    ""    FALSE    FALSE     
 8     1     1     3    10    30     45 expr  FALSE    ""    FALSE    FALSE     
 9     1     1     2    19    20     30 expr  FALSE    ""    FALSE    FALSE     
10     1     1     1     4     1      3 SYMB… TRUE     "car… FALSE    FALSE     
# … with 98 more rows, and 4 more variables: open_curly <lgl>,
#   closed_curly <lgl>, open_square <lgl>, closed_square <lgl>
```
…
