Franchises
…
---

class: split-40
count: false
.column[.content[

```r
*media_franchises
```
]]
.column[.content[

```
  # A tibble: 321 x 7
     franchise revenue_category revenue year_created original_media creators
     <chr>     <chr>              <dbl>        <int> <chr>          <chr>   
   1 A Song o… Book sales        9.00e8         1996 Novel          George …
   2 A Song o… Box Office        1.00e6         1996 Novel          George …
   3 A Song o… Home Video/Ente…  2.80e8         1996 Novel          George …
   4 A Song o… TV                4.00e9         1996 Novel          George …
   5 A Song o… Video Games/Gam…  1.32e8         1996 Novel          George …
   6 Aladdin   Box Office        7.60e8         1992 Animated film  Walt Di…
   7 Aladdin   Home Video/Ente…  1.00e9         1992 Animated film  Walt Di…
   8 Aladdin   Merchandise, Li…  5.00e8         1992 Animated film  Walt Di…
   9 Aladdin   Music             4.47e8         1992 Animated film  Walt Di…
  10 Aladdin   Video Games/Gam…  2.20e9         1992 Animated film  Walt Di…
  # … with 311 more rows, and 1 more variable: owners <chr>
```
]]
---
class: split-40
count: false
.column[.content[

```r
media_franchises %>%
* group_by(original_media)
```
]]
.column[.content[

```
  # A tibble: 321 x 7
  # Groups:   original_media [18]
     franchise revenue_category revenue year_created original_media creators
     <chr>     <chr>              <dbl>        <int> <chr>          <chr>   
   1 A Song o… Book sales        9.00e8         1996 Novel          George …
   2 A Song o… Box Office        1.00e6         1996 Novel          George …
   3 A Song o… Home Video/Ente…  2.80e8         1996 Novel          George …
   4 A Song o… TV                4.00e9         1996 Novel          George …
   5 A Song o… Video Games/Gam…  1.32e8         1996 Novel          George …
   6 Aladdin   Box Office        7.60e8         1992 Animated film  Walt Di…
   7 Aladdin   Home Video/Ente…  1.00e9         1992 Animated film  Walt Di…
   8 Aladdin   Merchandise, Li…  5.00e8         1992 Animated film  Walt Di…
   9 Aladdin   Music             4.47e8         1992 Animated film  Walt Di…
  10 Aladdin   Video Games/Gam…  2.20e9         1992 Animated film  Walt Di…
  # … with 311 more rows, and 1 more variable: owners <chr>
```
…
```r
media_franchises %>%
  group_by(original_media) %>%
  summarise(total_revenue = sum(revenue)) %>%
  top_n(5, total_revenue) %>%
  pull(original_media) ->
top_5_media
*media_franchises
```
]]
.column[.content[

```
  # A tibble: 321 x 7
     franchise revenue_category revenue year_created original_media creators
     <chr>     <chr>              <dbl>        <int> <chr>          <chr>   
   1 A Song o… Book sales        9.00e8         1996 Novel          George …
   2 A Song o… Box Office        1.00e6         1996 Novel          George …
   3 A Song o… Home Video/Ente…  2.80e8         1996 Novel          George …
   4 A Song o… TV                4.00e9         1996 Novel          George …
   5 A Song o… Video Games/Gam…  1.32e8         1996 Novel          George …
   6 Aladdin   Box Office        7.60e8         1992 Animated film  Walt Di…
   7 Aladdin   Home Video/Ente…  1.00e9         1992 Animated film  Walt Di…
   8 Aladdin   Merchandise, Li…  5.00e8         1992 Animated film  Walt Di…
   9 Aladdin   Music             4.47e8         1992 Animated film  Walt Di…
  10 Aladdin   Video Games/Gam…  2.20e9         1992 Animated film  Walt Di…
  # … with 311 more rows, and 1 more variable: owners <chr>
```
…
```r
media_franchises %>%
  group_by(original_media) %>%
  summarise(total_revenue = sum(revenue)) %>%
  top_n(5, total_revenue) %>%
  pull(original_media) ->
top_5_media
media_franchises %>%
* unique()
```
]]
.column[.content[

```
  # A tibble: 321 x 7
     franchise revenue_category revenue year_created original_media creators
     <chr>     <chr>              <dbl>        <int> <chr>          <chr>   
   1 A Song o… Book sales        9.00e8         1996 Novel          George …
   2 A Song o… Box Office        1.00e6         1996 Novel          George …
   3 A Song o… Home Video/Ente…  2.80e8         1996 Novel          George …
   4 A Song o… TV                4.00e9         1996 Novel          George …
   5 A Song o… Video Games/Gam…  1.32e8         1996 Novel          George …
   6 Aladdin   Box Office        7.60e8         1992 Animated film  Walt Di…
   7 Aladdin   Home Video/Ente…  1.00e9         1992 Animated film  Walt Di…
   8 Aladdin   Merchandise, Li…  5.00e8         1992 Animated film  Walt Di…
   9 Aladdin   Music             4.47e8         1992 Animated film  Walt Di…
  10 Aladdin   Video Games/Gam…  2.20e9         1992 Animated film  Walt Di…
  # … with 311 more rows, and 1 more variable: owners <chr>
```
…
```
  # A tibble: 187 x 7
     franchise revenue_category revenue year_created original_media creators
     <chr>     <chr>              <dbl>        <int> <chr>          <chr>   
   1 Aladdin   Box Office        7.60e8         1992 Animated film  Walt Di…
   2 Aladdin   Home Video/Ente…  1.00e9         1992 Animated film  Walt Di…
   3 Aladdin   Merchandise, Li…  5.00e8         1992 Animated film  Walt Di…
   4 Aladdin   Music             4.47e8         1992 Animated film  Walt Di…
   5 Aladdin   Video Games/Gam…  2.20e9         1992 Animated film  Walt Di…
   6 Angry Bi… Box Office        3.53e8         2009 Video game     Jaakko …
   7 Angry Bi… Home Video/Ente…  2.70e7         2009 Video game     Jaakko …
   8 Angry Bi… Merchandise, Li…  8.00e9         2009 Video game     Jaakko …
   9 Angry Bi… Video Games/Gam…  1.00e8         2009 Video game     Jaakko …
  10 Anpanman  Box Office        6.70e7         1973 Manga          Takashi…
  # … with 177 more rows, and 1 more variable: owners <chr>
```
…
```
  # A tibble: 187 x 7
     franchise revenue_category revenue year_created original_media creators
     <chr>     <chr>              <dbl>        <int> <chr>          <chr>   
   1 Aladdin   Box Office        7.60e8         1992 Animated film  Walt Di…
   2 Aladdin   Home Video/Ente…  1.00e9         1992 Animated film  Walt Di…
   3 Aladdin   Merchandise       5.00e8         1992 Animated film  Walt Di…
   4 Aladdin   Music             4.47e8         1992 Animated film  Walt Di…
   5 Aladdin   Games             2.20e9         1992 Animated film  Walt Di…
   6 Angry Bi… Box Office        3.53e8         2009 Video game     Jaakko …
   7 Angry Bi… Home Video/Ente…  2.70e7         2009 Video game     Jaakko …
   8 Angry Bi… Merchandise       8.00e9         2009 Video game     Jaakko …
   9 Angry Bi… Games             1.00e8         2009 Video game     Jaakko …
  10 Anpanman  Box Office        6.70e7         1973 Manga          Takashi…
  # … with 177 more rows, and 1 more variable: owners <chr>
```
…
```
  # A tibble: 187 x 7
     franchise revenue_category revenue year_created original_media creators
     <chr>     <chr>              <dbl>        <int> <chr>          <chr>   
   1 Aladdin   Box Office        7.60e8         1992 Animated film  Walt Di…
   2 Aladdin   Home Video/Ente…  1.00e9         1992 Animated film  Walt Di…
   3 Aladdin   Merchandise       5.00e8         1992 Animated film  Walt Di…
   4 Aladdin   Music             4.47e8         1992 Animated film  Walt Di…
   5 Aladdin   Games             2.20e9         1992 Animated film  Walt Di…
   6 Angry Bi… Box Office        3.53e8         2009 Video game     Jaakko …
   7 Angry Bi… Home Video/Ente…  2.70e7         2009 Video game     Jaakko …
   8 Angry Bi… Merchandise       8.00e9         2009 Video game     Jaakko …
   9 Angry Bi… Games             1.00e8         2009 Video game     Jaakko …
  10 Anpanman  Box Office        6.70e7         1973 Manga          Takashi…
  # … with 177 more rows, and 1 more variable: owners <chr>
```
…
```
  # A tibble: 187 x 8
     franchise revenue_category revenue year_created original_media creators
     <chr>     <chr>              <dbl>        <int> <chr>          <chr>   
   1 Aladdin   Box Office        7.60e8         1992 Animated film  Walt Di…
   2 Aladdin   Home Video/Ente…  1.00e9         1992 Animated film  Walt Di…
   3 Aladdin   Merchandise       5.00e8         1992 Animated film  Walt Di…
   4 Aladdin   Music             4.47e8         1992 Animated film  Walt Di…
   5 Aladdin   Games             2.20e9         1992 Animated film  Walt Di…
   6 Angry Bi… Box Office        3.53e8         2009 Video game     Jaakko …
   7 Angry Bi… Home Video/Ente…  2.70e7         2009 Video game     Jaakko …
   8 Angry Bi… Merchandise       8.00e9         2009 Video game     Jaakko …
   9 Angry Bi… Games             1.00e8         2009 Video game     Jaakko …
  10 Anpanman  Box Office        6.70e7         1973 Manga          Takashi…
  # … with 177 more rows, and 2 more variables: owners <chr>, categ <chr>
```
…
