World Cup analysis
…
---

class: split-40
count: false
.column[.content[

```r
*squads
```
]]
.column[.content[

```
  # A tibble: 552 x 9
     squad_no country pos   player dob                   age  caps goals
        <int> <chr>   <chr> <chr>  <dttm>              <int> <int> <int>
   1        1 US      GK    Alyss… 1988-04-20 00:00:00    31    43     0
   2        2 US      FW    Mallo… 1998-04-29 00:00:00    21    50    15
   3        3 US      MF    Sam M… 1992-10-09 00:00:00    26    47     9
   4        4 US      DF    Becky… 1985-06-06 00:00:00    34   155     0
   5        5 US      DF    Kelle… 1988-08-04 00:00:00    30   115     2
   6        6 US      MF    Morga… 1993-02-26 00:00:00    26    82     6
   7        7 US      DF    Abby … 1993-05-13 00:00:00    26    37     0
   8        8 US      MF    Julie… 1992-04-06 00:00:00    27    79    18
   9        9 US      MF    Linds… 1994-05-26 00:00:00    25    66     8
  10       10 US      FW    Carli… 1982-07-16 00:00:00    36   271   107
  # … with 542 more rows, and 1 more variable: club <chr>
```
…
```r
squads %>%
* mutate(pos = case_when(pos == "DF" ~ "Defense",
*                        pos == "MF" ~ "Mid fielder",
*                        pos == "GK" ~ "Goal keeper",
*                        pos == "FW" ~ "Forward"))
```
]]
.column[.content[

```
  # A tibble: 552 x 9
     squad_no country pos   player dob                   age  caps goals
        <int> <chr>   <chr> <chr>  <dttm>              <int> <int> <int>
   1        1 US      Goal… Alyss… 1988-04-20 00:00:00    31    43     0
   2        2 US      Forw… Mallo… 1998-04-29 00:00:00    21    50    15
   3        3 US      Mid … Sam M… 1992-10-09 00:00:00    26    47     9
   4        4 US      Defe… Becky… 1985-06-06 00:00:00    34   155     0
   5        5 US      Defe… Kelle… 1988-08-04 00:00:00    30   115     2
   6        6 US      Mid … Morga… 1993-02-26 00:00:00    26    82     6
   7        7 US      Defe… Abby … 1993-05-13 00:00:00    26    37     0
   8        8 US      Mid … Julie… 1992-04-06 00:00:00    27    79    18
   9        9 US      Mid … Linds… 1994-05-26 00:00:00    25    66     8
  10       10 US      Forw… Carli… 1982-07-16 00:00:00    36   271   107
  # … with 542 more rows, and 1 more variable: club <chr>
```
…
