#TidyTuesday Highlights
…
---

class: split-40
count: false

.column[.content[

```r
*student_ratio
```
]]
.column[.content.center[

```
  # A tibble: 5,189 x 8
     edulit_ind indicator country_code country  year student_ratio flag_codes
     <chr>      <chr>     <chr>        <chr>   <int>         <dbl> <chr>     
   1 PTRHC_2    Lower Se… MRT          Maurit…  2013         56.6  <NA>      
   2 PTRHC_2    Lower Se… MRT          Maurit…  2014         51.9  <NA>      
   3 PTRHC_2    Lower Se… MRT          Maurit…  2015         53.2  <NA>      
   4 PTRHC_2    Lower Se… MRT          Maurit…  2016         38.2  <NA>      
   5 PTRHC_1    Primary … COD          Democr…  2012         34.7  <NA>      
   6 PTRHC_1    Primary … COD          Democr…  2013         37.1  <NA>      
   7 PTRHC_1    Primary … COD          Democr…  2014         35.3  <NA>      
   8 PTRHC_1    Primary … COD          Democr…  2015         33.2  <NA>      
   9 PTRHC_3    Upper Se… SYR          Syrian…  2013          8.47 <NA>      
  10 PTRHC_02   Pre-Prim… GNQ          Equato…  2012         17.5  <NA>      
  # … with 5,179 more rows, and 1 more variable: flags <chr>
```
…
.column[.content[

```r
student_ratio %>%
* filter(indicator == "Tertiary Education")
```
]]
.column[.content.center[

```
  # A tibble: 550 x 8
     edulit_ind indicator country_code country  year student_ratio flag_codes
     <chr>      <chr>     <chr>        <chr>   <int>         <dbl> <chr>     
   1 PTRHC_5T8  Tertiary… PLW          Palau    2013          8.22 <NA>      
   2 PTRHC_5T8  Tertiary… SWE          Sweden   2012         14.0  <NA>      
   3 PTRHC_5T8  Tertiary… SWE          Sweden   2013         13.4  <NA>      
   4 PTRHC_5T8  Tertiary… SWE          Sweden   2014         12.9  <NA>      
   5 PTRHC_5T8  Tertiary… SWE          Sweden   2015         12.6  <NA>      
   6 PTRHC_5T8  Tertiary… SWE          Sweden   2016         12.4  <NA>      
   7 PTRHC_5T8  Tertiary… BEL          Belgium  2012         16.6  <NA>      
   8 PTRHC_5T8  Tertiary… BEL          Belgium  2013         16.3  <NA>      
   9 PTRHC_5T8  Tertiary… BEL          Belgium  2014         17.3  <NA>      
  10 PTRHC_5T8  Tertiary… BEL          Belgium  2015         17.6  <NA>      
  # … with 540 more rows, and 1 more variable: flags <chr>
```
…
.column[.content[

```r
student_ratio %>%
  filter(indicator == "Tertiary Education") %>%
* group_by(country)
```
]]
.column[.content.center[

```
  # A tibble: 550 x 8
  # Groups:   country [148]
     edulit_ind indicator country_code country  year student_ratio flag_codes
     <chr>      <chr>     <chr>        <chr>   <int>         <dbl> <chr>     
   1 PTRHC_5T8  Tertiary… PLW          Palau    2013          8.22 <NA>      
   2 PTRHC_5T8  Tertiary… SWE          Sweden   2012         14.0  <NA>      
   3 PTRHC_5T8  Tertiary… SWE          Sweden   2013         13.4  <NA>      
   4 PTRHC_5T8  Tertiary… SWE          Sweden   2014         12.9  <NA>      
   5 PTRHC_5T8  Tertiary… SWE          Sweden   2015         12.6  <NA>      
   6 PTRHC_5T8  Tertiary… SWE          Sweden   2016         12.4  <NA>      
   7 PTRHC_5T8  Tertiary… BEL          Belgium  2012         16.6  <NA>      
   8 PTRHC_5T8  Tertiary… BEL          Belgium  2013         16.3  <NA>      
   9 PTRHC_5T8  Tertiary… BEL          Belgium  2014         17.3  <NA>      
  10 PTRHC_5T8  Tertiary… BEL          Belgium  2015         17.6  <NA>      
  # … with 540 more rows, and 1 more variable: flags <chr>
```
…
.column[.content[

```r
student_ratio %>%
  filter(indicator == "Tertiary Education") %>%
  group_by(country) %>%
* summarise(student_ratio =
*             mean(student_ratio,
*                  na.rm = TRUE))
```
]]
.column[.content.center[

```
  # A tibble: 148 x 2
     country             student_ratio
     <chr>                       <dbl>
   1 Afghanistan                 22.7 
   2 Albania                     19.9 
   3 Algeria                     25.2 
   4 Andorra                      4.23
   5 Angola                      25.5 
   6 Antigua and Barbuda          8.18
   7 Armenia                      7.13
   8 Aruba                       10.6 
   9 Austria                      7.37
  10 Azerbaijan                   8.95
  # … with 138 more rows
```
…
```r
student_ratio %>%
  filter(indicator == "Tertiary Education") %>%
  group_by(country) %>%
  summarise(student_ratio = 
              mean(student_ratio, 
                   na.rm = TRUE)) %>%
* ungroup()
```
]]
.column[.content.center[

```
  # A tibble: 148 x 2
     country             student_ratio
     <chr>                       <dbl>
   1 Afghanistan                 22.7 
   2 Albania                     19.9 
   3 Algeria                     25.2 
   4 Andorra                      4.23
   5 Angola                      25.5 
   6 Antigua and Barbuda          8.18
   7 Armenia                      7.13
   8 Aruba                       10.6 
   9 Austria                      7.37
  10 Azerbaijan                   8.95
  # … with 138 more rows
```
…
```r
student_ratio %>%
  filter(indicator == "Tertiary Education") %>%
  group_by(country) %>%
  summarise(student_ratio = 
              mean(student_ratio, 
                   na.rm = TRUE)) %>%
  ungroup() %>%
* drop_na(student_ratio)
```
]]
.column[.content.center[

```
  # A tibble: 146 x 2
     country             student_ratio
     <chr>                       <dbl>
   1 Afghanistan                 22.7 
   2 Albania                     19.9 
   3 Algeria                     25.2 
   4 Andorra                      4.23
   5 Angola                      25.5 
   6 Antigua and Barbuda          8.18
   7 Armenia                      7.13
   8 Aruba                       10.6 
   9 Austria                      7.37
  10 Azerbaijan                   8.95
  # … with 136 more rows
```
…
```
  # A tibble: 146 x 2
     region              student_ratio
     <chr>                       <dbl>
   1 Afghanistan                 22.7 
   2 Albania                     19.9 
   3 Algeria                     25.2 
   4 Andorra                      4.23
   5 Angola                      25.5 
   6 Antigua and Barbuda          8.18
   7 Armenia                      7.13
   8 Aruba                       10.6 
   9 Austria                      7.37
  10 Azerbaijan                   8.95
  # … with 136 more rows
```
…
```
  # A tibble: 94,703 x 7
     region      student_ratio  long   lat group order subregion
     <chr>               <dbl> <dbl> <dbl> <dbl> <int> <chr>    
   1 Afghanistan          22.7  74.9  37.2     2    12 <NA>     
   2 Afghanistan          22.7  74.8  37.2     2    13 <NA>     
   3 Afghanistan          22.7  74.8  37.2     2    14 <NA>     
   4 Afghanistan          22.7  74.7  37.3     2    15 <NA>     
   5 Afghanistan          22.7  74.7  37.3     2    16 <NA>     
   6 Afghanistan          22.7  74.7  37.3     2    17 <NA>     
   7 Afghanistan          22.7  74.6  37.2     2    18 <NA>     
   8 Afghanistan          22.7  74.4  37.2     2    19 <NA>     
   9 Afghanistan          22.7  74.4  37.1     2    20 <NA>     
  10 Afghanistan          22.7  74.5  37.1     2    21 <NA>     
  # … with 94,693 more rows
```
…
