UFOs
…
---

class: split-40
count: false
.column[.content[

```r
*ufo_raw
```
]]
.column[.content[

```
  # A tibble: 80,332 x 11
     date_time city_area state country ufo_shape encounter_length
     <chr>     <chr>     <chr> <chr>   <chr>                <int>
   1 10/10/19… san marc… tx    us      cylinder              2700
   2 10/10/19… lackland… tx    <NA>    light                 7200
   3 10/10/19… chester … <NA>  gb      circle                  20
   4 10/10/19… edna      tx    us      circle                  20
   5 10/10/19… kaneohe   hi    us      light                  900
   6 10/10/19… bristol   tn    us      sphere                 300
   7 10/10/19… penarth … <NA>  gb      circle                 180
   8 10/10/19… norwalk   ct    us      disk                  1200
   9 10/10/19… pell city al    us      disk                   180
  10 10/10/19… live oak  fl    us      disk                   120
  # … with 80,322 more rows, and 5 more variables:
  #   described_encounter_length <chr>, description <chr>,
  #   date_documented <chr>, latitude <dbl>, longitude <dbl>
```
]]
---
class: split-40
count: false
.column[.content[

```r
ufo_raw %>%
*     janitor::clean_names()
```
]]
.column[.content[

```
  # A tibble: 80,332 x 11
     date_time city_area state country ufo_shape encounter_length
     <chr>     <chr>     <chr> <chr>   <chr>                <int>
   1 10/10/19… san marc… tx    us      cylinder              2700
   2 10/10/19… lackland… tx    <NA>    light                 7200
   3 10/10/19… chester … <NA>  gb      circle                  20
   4 10/10/19… edna      tx    us      circle                  20
   5 10/10/19… kaneohe   hi    us      light                  900
   6 10/10/19… bristol   tn    us      sphere                 300
   7 10/10/19… penarth … <NA>  gb      circle                 180
   8 10/10/19… norwalk   ct    us      disk                  1200
   9 10/10/19… pell city al    us      disk                   180
  10 10/10/19… live oak  fl    us      disk                   120
  # … with 80,322 more rows, and 5 more variables:
  #   described_encounter_length <chr>, description <chr>,
  #   date_documented <chr>, latitude <dbl>, longitude <dbl>
```
…
```r
ufo_raw %>%
      janitor::clean_names() %>%
*     select(date_time, city_area,
*            state, latitude,
*            longitude, encounter_length)
```
]]
.column[.content[

```
  # A tibble: 80,332 x 6
     date_time      city_area       state latitude longitude encounter_length
     <chr>          <chr>           <chr>    <dbl>     <dbl>            <int>
   1 10/10/1949 20… san marcos      tx        29.9    -97.9              2700
   2 10/10/1949 21… lackland afb    tx        29.4    -98.6              7200
   3 10/10/1955 17… chester (uk/en… <NA>      53.2     -2.92               20
   4 10/10/1956 21… edna            tx        29.0    -96.6                20
   5 10/10/1960 20… kaneohe         hi        21.4   -158.                900
   6 10/10/1961 19… bristol         tn        36.6    -82.2               300
   7 10/10/1965 21… penarth (uk/wa… <NA>      51.4     -3.18              180
   8 10/10/1965 23… norwalk         ct        41.1    -73.4              1200
   9 10/10/1966 20… pell city       al        33.6    -86.3               180
  10 10/10/1966 21… live oak        fl        30.3    -83.0               120
  # … with 80,322 more rows
```
…
```r
ufo_raw %>%
      janitor::clean_names() %>%
      select(date_time, city_area,
             state, latitude,
             longitude, encounter_length) %>%
* rename(lat = latitude,
*        long = longitude)
```
]]
.column[.content[

```
  # A tibble: 80,332 x 6
     date_time        city_area          state   lat    long encounter_length
     <chr>            <chr>              <chr> <dbl>   <dbl>            <int>
   1 10/10/1949 20:30 san marcos         tx     29.9  -97.9              2700
   2 10/10/1949 21:00 lackland afb       tx     29.4  -98.6              7200
   3 10/10/1955 17:00 chester (uk/engla… <NA>   53.2   -2.92               20
   4 10/10/1956 21:00 edna               tx     29.0  -96.6                20
   5 10/10/1960 20:00 kaneohe            hi     21.4 -158.                900
   6 10/10/1961 19:00 bristol            tn     36.6  -82.2               300
   7 10/10/1965 21:00 penarth (uk/wales) <NA>   51.4   -3.18              180
   8 10/10/1965 23:45 norwalk            ct     41.1  -73.4              1200
   9 10/10/1966 20:00 pell city          al     33.6  -86.3               180
  10 10/10/1966 21:00 live oak           fl     30.3  -83.0               120
  # … with 80,322 more rows
```
…
```
  # A tibble: 1,862 x 6
     date_time        city_area      state   lat  long encounter_length
     <chr>            <chr>          <chr> <dbl> <dbl>            <int>
   1 10/10/1968 19:00 brevard        nc     35.2 -82.7              180
   2 10/10/1971 21:00 lexington      nc     35.8 -80.3               30
   3 10/10/1991 22:00 frisco         nc     35.2 -75.6             1800
   4 10/10/1998 20:50 mooresville    nc     35.6 -80.8                2
   5 10/10/2005 23:00 hendersonville nc     35.3 -82.5              600
   6 10/10/2009 20:45 wilmington     nc     34.2 -77.9              600
   7 10/11/2008 13:00 salisbury      nc     35.7 -80.5               20
   8 10/11/2011 21:10 holden beach   nc     33.9 -78.3               30
   9 10/1/1961 22:00  graham         nc     36.1 -79.4               30
  10 10/1/1978 00:00  windsor        nc     36.0 -76.9              300
  # … with 1,852 more rows
```
…
```
  # A tibble: 1,862 x 6
     date_time  city_area      state   lat  long encounter_length
     <date>     <chr>          <chr> <dbl> <dbl>            <dbl>
   1 1968-10-10 brevard        nc     35.2 -82.7         0.05    
   2 1971-10-10 lexington      nc     35.8 -80.3         0.00833 
   3 1991-10-10 frisco         nc     35.2 -75.6         0.5     
   4 1998-10-10 mooresville    nc     35.6 -80.8         0.000556
   5 2005-10-10 hendersonville nc     35.3 -82.5         0.167   
   6 2009-10-10 wilmington     nc     34.2 -77.9         0.167   
   7 2008-10-11 salisbury      nc     35.7 -80.5         0.00556 
   8 2011-10-11 holden beach   nc     33.9 -78.3         0.00833 
   9 1961-10-01 graham         nc     36.1 -79.4         0.00833 
  10 1978-10-01 windsor        nc     36.0 -76.9         0.0833  
  # … with 1,852 more rows
```
…
---

class: split-40
count: false
.column[.content[

```r
*ufo
```
]]
.column[.content[

```
  # A tibble: 1,862 x 6
     date_time  city_area      state   lat  long encounter_length
     <date>     <chr>          <chr> <dbl> <dbl>            <dbl>
   1 1968-10-10 brevard        nc     35.2 -82.7         0.05    
   2 1971-10-10 lexington      nc     35.8 -80.3         0.00833 
   3 1991-10-10 frisco         nc     35.2 -75.6         0.5     
   4 1998-10-10 mooresville    nc     35.6 -80.8         0.000556
   5 2005-10-10 hendersonville nc     35.3 -82.5         0.167   
   6 2009-10-10 wilmington     nc     34.2 -77.9         0.167   
   7 2008-10-11 salisbury      nc     35.7 -80.5         0.00556 
   8 2011-10-11 holden beach   nc     33.9 -78.3         0.00833 
   9 1961-10-01 graham         nc     36.1 -79.4         0.00833 
  10 1978-10-01 windsor        nc     36.0 -76.9         0.0833  
  # … with 1,852 more rows
```
…
