the logic of logical indexing and data wrangling with base R
…
```r
library(magrittr)  
library(gapminder)  
*gapminder
```
]]
.column[.content[

```
# A tibble: 1,704 x 6
   country     continent  year lifeExp      pop gdpPercap
   <fct>       <fct>     <int>   <dbl>    <int>     <dbl>
 1 Afghanistan Asia       1952    28.8  8425333      779.
 2 Afghanistan Asia       1957    30.3  9240934      821.
 3 Afghanistan Asia       1962    32.0 10267083      853.
 4 Afghanistan Asia       1967    34.0 11537966      836.
 5 Afghanistan Asia       1972    36.1 13079460      740.
 6 Afghanistan Asia       1977    38.4 14880372      786.
 7 Afghanistan Asia       1982    39.9 12881816      978.
 8 Afghanistan Asia       1987    40.8 13867957      852.
 9 Afghanistan Asia       1992    41.7 16317921      649.
10 Afghanistan Asia       1997    41.8 22227415      635.
# … with 1,694 more rows
```
…
```r
library(magrittr)  
library(gapminder)  
gapminder %>%  
* .[, c("year", "country", "pop", "gdpPercap")]
```
]]
.column[.content[

```
# A tibble: 1,704 x 4
    year country          pop gdpPercap
   <int> <fct>          <int>     <dbl>
 1  1952 Afghanistan  8425333      779.
 2  1957 Afghanistan  9240934      821.
 3  1962 Afghanistan 10267083      853.
 4  1967 Afghanistan 11537966      836.
 5  1972 Afghanistan 13079460      740.
 6  1977 Afghanistan 14880372      786.
 7  1982 Afghanistan 12881816      978.
 8  1987 Afghanistan 13867957      852.
 9  1992 Afghanistan 16317921      649.
10  1997 Afghanistan 22227415      635.
# … with 1,694 more rows
```
…
```r
library(magrittr)  
library(gapminder)  
gapminder %>%  
  .[, c("year", "country", "pop", "gdpPercap")] %>%  
* .[gapminder$year == 2002, ]
```
]]
.column[.content[

```
# A tibble: 142 x 4
    year country           pop gdpPercap
   <int> <fct>           <int>     <dbl>
 1  2002 Afghanistan  25268405      727.
 2  2002 Albania       3508512     4604.
 3  2002 Algeria      31287142     5288.
 4  2002 Angola       10866106     2773.
 5  2002 Argentina    38331121     8798.
 6  2002 Australia    19546792    30688.
 7  2002 Austria       8148312    32418.
 8  2002 Bahrain        656397    23404.
 9  2002 Bangladesh  135656790     1136.
10  2002 Belgium      10311970    30486.
# … with 132 more rows
```
…
```r
library(magrittr)  
library(gapminder)  
gapminder %>%  
  .[, c("year", "country", "pop", "gdpPercap")] %>%  
  .[gapminder$year == 2002, ] %>%  
* .[, -1]
```
]]
.column[.content[

```
# A tibble: 142 x 3
   country           pop gdpPercap
   <fct>           <int>     <dbl>
 1 Afghanistan  25268405      727.
 2 Albania       3508512     4604.
 3 Algeria      31287142     5288.
 4 Angola       10866106     2773.
 5 Argentina    38331121     8798.
 6 Australia    19546792    30688.
 7 Austria       8148312    32418.
 8 Bahrain        656397    23404.
 9 Bangladesh  135656790     1136.
10 Belgium      10311970    30486.
# … with 132 more rows
```
…
```r
library(magrittr)  
library(gapminder)  
gapminder %>%  
  .[, c("year", "country", "pop", "gdpPercap")] %>%  
  .[gapminder$year == 2002, ] %>%  
  .[, -1] ->  
*gm_2002 ; gm_2002
```
]]
.column[.content[

```
# A tibble: 142 x 3
   country           pop gdpPercap
   <fct>           <int>     <dbl>
 1 Afghanistan  25268405      727.
 2 Albania       3508512     4604.
 3 Algeria      31287142     5288.
 4 Angola       10866106     2773.
 5 Argentina    38331121     8798.
 6 Australia    19546792    30688.
 7 Austria       8148312    32418.
 8 Bahrain        656397    23404.
 9 Bangladesh  135656790     1136.
10 Belgium      10311970    30486.
# … with 132 more rows
```
…
```r
library(magrittr)  
library(gapminder)  
gapminder %>%  
  .[, c("year", "country", "pop", "gdpPercap")] %>%  
  .[gapminder$year == 2002, ] %>%  
  .[, -1] ->  
gm_2002 ; gm_2002  
*gm_2002$gdp <- with(gm_2002, pop * gdpPercap) ; gm_2002
```
]]
.column[.content[

```
# A tibble: 142 x 3
   country           pop gdpPercap
   <fct>           <int>     <dbl>
 1 Afghanistan  25268405      727.
 2 Albania       3508512     4604.
 3 Algeria      31287142     5288.
 4 Angola       10866106     2773.
 5 Argentina    38331121     8798.
 6 Australia    19546792    30688.
 7 Austria       8148312    32418.
 8 Bahrain        656397    23404.
 9 Bangladesh  135656790     1136.
10 Belgium      10311970    30486.
# … with 132 more rows
```

```
# A tibble: 142 x 4
   country           pop gdpPercap           gdp
   <fct>           <int>     <dbl>         <dbl>
 1 Afghanistan  25268405      727.  18363410424.
 2 Albania       3508512     4604.  16153932130.
 3 Algeria      31287142     5288. 165447670333.
 4 Angola       10866106     2773.  30134833901.
 5 Argentina    38331121     8798. 337223430800.
 6 Australia    19546792    30688. 599847158654.
 7 Austria       8148312    32418. 264148781752.
 8 Bahrain        656397    23404.  15362026094.
 9 Bangladesh  135656790     1136. 154159077921.
10 Belgium      10311970    30486. 314369518653.
# … with 132 more rows
```
…
