Racing Barchart with gganimate
…
---

class: split-40
count: false
.column[.content[

```r
*gapminder
```
]]
.column[.content[

```
  # A tibble: 1,704 x 6
     country     continent  year lifeExp      pop gdpPercap
     <fct>       <fct>     <int>   <dbl>    <int>     <dbl>
   1 Afghanistan Asia       1952    28.8  8425333      779.
   2 Afghanistan Asia       1957    30.3  9240934      821.
   3 Afghanistan Asia       1962    32.0 10267083      853.
   4 Afghanistan Asia       1967    34.0 11537966      836.
   5 Afghanistan Asia       1972    36.1 13079460      740.
   6 Afghanistan Asia       1977    38.4 14880372      786.
   7 Afghanistan Asia       1982    39.9 12881816      978.
   8 Afghanistan Asia       1987    40.8 13867957      852.
   9 Afghanistan Asia       1992    41.7 16317921      649.
  10 Afghanistan Asia       1997    41.8 22227415      635.
  # … with 1,694 more rows
```
]]
---
class: split-40
count: false
.column[.content[

```r
gapminder %>%
* select(country, pop, year, continent)
```
]]
.column[.content[

```
  # A tibble: 1,704 x 4
     country          pop  year continent
     <fct>          <int> <int> <fct>    
   1 Afghanistan  8425333  1952 Asia     
   2 Afghanistan  9240934  1957 Asia     
   3 Afghanistan 10267083  1962 Asia     
   4 Afghanistan 11537966  1967 Asia     
   5 Afghanistan 13079460  1972 Asia     
   6 Afghanistan 14880372  1977 Asia     
   7 Afghanistan 12881816  1982 Asia     
   8 Afghanistan 13867957  1987 Asia     
   9 Afghanistan 16317921  1992 Asia     
  10 Afghanistan 22227415  1997 Asia     
  # … with 1,694 more rows
```
…
```r
gapminder %>%
  select(country, pop, year, continent) %>%
* group_by(year)   # for each year we assign a rank
```
]]
.column[.content[

```
  # A tibble: 1,704 x 4
  # Groups:   year [12]
     country          pop  year continent
     <fct>          <int> <int> <fct>    
   1 Afghanistan  8425333  1952 Asia     
   2 Afghanistan  9240934  1957 Asia     
   3 Afghanistan 10267083  1962 Asia     
   4 Afghanistan 11537966  1967 Asia     
   5 Afghanistan 13079460  1972 Asia     
   6 Afghanistan 14880372  1977 Asia     
   7 Afghanistan 12881816  1982 Asia     
   8 Afghanistan 13867957  1987 Asia     
   9 Afghanistan 16317921  1992 Asia     
  10 Afghanistan 22227415  1997 Asia     
  # … with 1,694 more rows
```
…
```r
gapminder %>%
  select(country, pop, year, continent) %>%
  group_by(year) %>%  # for each year we assign a rank
* arrange(year, -pop)
```
]]
.column[.content[

```
  # A tibble: 1,704 x 4
  # Groups:   year [12]
     country              pop  year continent
     <fct>              <int> <int> <fct>    
   1 China          556263527  1952 Asia     
   2 India          372000000  1952 Asia     
   3 United States  157553000  1952 Americas 
   4 Japan           86459025  1952 Asia     
   5 Indonesia       82052000  1952 Asia     
   6 Germany         69145952  1952 Europe   
   7 Brazil          56602560  1952 Americas 
   8 United Kingdom  50430000  1952 Europe   
   9 Italy           47666000  1952 Europe   
  10 Bangladesh      46886859  1952 Asia     
  # … with 1,694 more rows
```
…
```r
gapminder %>%
  select(country, pop, year, continent) %>%
  group_by(year) %>%  # for each year we assign a rank
  arrange(year, -pop) %>%
* mutate(rank = 1:n())   # assign ranking
```
]]
.column[.content[

```
  # A tibble: 1,704 x 5
  # Groups:   year [12]
     country              pop  year continent  rank
     <fct>              <int> <int> <fct>     <int>
   1 China          556263527  1952 Asia          1
   2 India          372000000  1952 Asia          2
   3 United States  157553000  1952 Americas      3
   4 Japan           86459025  1952 Asia          4
   5 Indonesia       82052000  1952 Asia          5
   6 Germany         69145952  1952 Europe        6
   7 Brazil          56602560  1952 Americas      7
   8 United Kingdom  50430000  1952 Europe        8
   9 Italy           47666000  1952 Europe        9
  10 Bangladesh      46886859  1952 Asia         10
  # … with 1,694 more rows
```
…
```r
gapminder %>%
  select(country, pop, year, continent) %>%
  group_by(year) %>%  # for each year we assign a rank
  arrange(year, -pop) %>%
  mutate(rank = 1:n()) %>%  # assign ranking
* filter(rank <= 10)
```
]]
.column[.content[

```
  # A tibble: 120 x 5
  # Groups:   year [12]
     country              pop  year continent  rank
     <fct>              <int> <int> <fct>     <int>
   1 China          556263527  1952 Asia          1
   2 India          372000000  1952 Asia          2
   3 United States  157553000  1952 Americas      3
   4 Japan           86459025  1952 Asia          4
   5 Indonesia       82052000  1952 Asia          5
   6 Germany         69145952  1952 Europe        6
   7 Brazil          56602560  1952 Americas      7
   8 United Kingdom  50430000  1952 Europe        8
   9 Italy           47666000  1952 Europe        9
  10 Bangladesh      46886859  1952 Asia         10
  # … with 110 more rows
```
…
