Racing barplots
…
class: split-40
count: false

.column[.content[

```r
*gapminder
```
]]
.column[.content.center[

```
  # A tibble: 1,704 x 6
     country     continent  year lifeExp      pop gdpPercap
     <fct>       <fct>     <int>   <dbl>    <int>     <dbl>
   1 Afghanistan Asia       1952    28.8  8425333      779.
   2 Afghanistan Asia       1957    30.3  9240934      821.
   3 Afghanistan Asia       1962    32.0 10267083      853.
   4 Afghanistan Asia       1967    34.0 11537966      836.
   5 Afghanistan Asia       1972    36.1 13079460      740.
   6 Afghanistan Asia       1977    38.4 14880372      786.
   7 Afghanistan Asia       1982    39.9 12881816      978.
   8 Afghanistan Asia       1987    40.8 13867957      852.
   9 Afghanistan Asia       1992    41.7 16317921      649.
  10 Afghanistan Asia       1997    41.8 22227415      635.
  # … with 1,694 more rows
```
…
.column[.content[

```r
gapminder %>% 
* ungroup()
```
]]
.column[.content.center[

```
  # A tibble: 1,704 x 6
     country     continent  year lifeExp      pop gdpPercap
     <fct>       <fct>     <int>   <dbl>    <int>     <dbl>
   1 Afghanistan Asia       1952    28.8  8425333      779.
   2 Afghanistan Asia       1957    30.3  9240934      821.
   3 Afghanistan Asia       1962    32.0 10267083      853.
   4 Afghanistan Asia       1967    34.0 11537966      836.
   5 Afghanistan Asia       1972    36.1 13079460      740.
   6 Afghanistan Asia       1977    38.4 14880372      786.
   7 Afghanistan Asia       1982    39.9 12881816      978.
   8 Afghanistan Asia       1987    40.8 13867957      852.
   9 Afghanistan Asia       1992    41.7 16317921      649.
  10 Afghanistan Asia       1997    41.8 22227415      635.
  # … with 1,694 more rows
```
…
.column[.content[

```r
gapminder %>% 
  ungroup() %>% 
* group_by(year)
```
]]
.column[.content.center[

```
  # A tibble: 1,704 x 6
  # Groups:   year [12]
     country     continent  year lifeExp      pop gdpPercap
     <fct>       <fct>     <int>   <dbl>    <int>     <dbl>
   1 Afghanistan Asia       1952    28.8  8425333      779.
   2 Afghanistan Asia       1957    30.3  9240934      821.
   3 Afghanistan Asia       1962    32.0 10267083      853.
   4 Afghanistan Asia       1967    34.0 11537966      836.
   5 Afghanistan Asia       1972    36.1 13079460      740.
   6 Afghanistan Asia       1977    38.4 14880372      786.
   7 Afghanistan Asia       1982    39.9 12881816      978.
   8 Afghanistan Asia       1987    40.8 13867957      852.
   9 Afghanistan Asia       1992    41.7 16317921      649.
  10 Afghanistan Asia       1997    41.8 22227415      635.
  # … with 1,694 more rows
```
…
.column[.content[

```r
gapminder %>% 
  ungroup() %>% 
  group_by(year) %>% 
* arrange(year, -pop)
```
]]
.column[.content.center[

```
  # A tibble: 1,704 x 6
  # Groups:   year [12]
     country        continent  year lifeExp       pop gdpPercap
     <fct>          <fct>     <int>   <dbl>     <int>     <dbl>
   1 China          Asia       1952    44   556263527      400.
   2 India          Asia       1952    37.4 372000000      547.
   3 United States  Americas   1952    68.4 157553000    13990.
   4 Japan          Asia       1952    63.0  86459025     3217.
   5 Indonesia      Asia       1952    37.5  82052000      750.
   6 Germany        Europe     1952    67.5  69145952     7144.
   7 Brazil         Americas   1952    50.9  56602560     2109.
   8 United Kingdom Europe     1952    69.2  50430000     9980.
   9 Italy          Europe     1952    65.9  47666000     4931.
  10 Bangladesh     Asia       1952    37.5  46886859      684.
  # … with 1,694 more rows
```
…
.column[.content[

```r
gapminder %>% 
  ungroup() %>% 
  group_by(year) %>% 
  arrange(year, -pop) %>% 
* mutate(rank = 1:n())
```
]]
.column[.content.center[

```
  # A tibble: 1,704 x 7
  # Groups:   year [12]
     country        continent  year lifeExp       pop gdpPercap  rank
     <fct>          <fct>     <int>   <dbl>     <int>     <dbl> <int>
   1 China          Asia       1952    44   556263527      400.     1
   2 India          Asia       1952    37.4 372000000      547.     2
   3 United States  Americas   1952    68.4 157553000    13990.     3
   4 Japan          Asia       1952    63.0  86459025     3217.     4
   5 Indonesia      Asia       1952    37.5  82052000      750.     5
   6 Germany        Europe     1952    67.5  69145952     7144.     6
   7 Brazil         Americas   1952    50.9  56602560     2109.     7
   8 United Kingdom Europe     1952    69.2  50430000     9980.     8
   9 Italy          Europe     1952    65.9  47666000     4931.     9
  10 Bangladesh     Asia       1952    37.5  46886859      684.    10
  # … with 1,694 more rows
```
…
.column[.content[

```r
gapminder %>% 
  ungroup() %>% 
  group_by(year) %>% 
  arrange(year, -pop) %>% 
  mutate(rank = 1:n()) %>%
* filter(rank <= 10)
```
]]
.column[.content.center[

```
  # A tibble: 120 x 7
  # Groups:   year [12]
     country        continent  year lifeExp       pop gdpPercap  rank
     <fct>          <fct>     <int>   <dbl>     <int>     <dbl> <int>
   1 China          Asia       1952    44   556263527      400.     1
   2 India          Asia       1952    37.4 372000000      547.     2
   3 United States  Americas   1952    68.4 157553000    13990.     3
   4 Japan          Asia       1952    63.0  86459025     3217.     4
   5 Indonesia      Asia       1952    37.5  82052000      750.     5
   6 Germany        Europe     1952    67.5  69145952     7144.     6
   7 Brazil         Americas   1952    50.9  56602560     2109.     7
   8 United Kingdom Europe     1952    69.2  50430000     9980.     8
   9 Italy          Europe     1952    65.9  47666000     4931.     9
  10 Bangladesh     Asia       1952    37.5  46886859      684.    10
  # … with 110 more rows
```
…
