A Minimal #TidyTuesday Flipbook
…
---

class: split-40
count: false

.column[.content[

```r
*nobel_winners
```
]]
.column[.content.center[

```
# A tibble: 969 x 18
   prize_year category prize motivation prize_share laureate_id
        <int> <chr>    <chr> <chr>      <chr>             <int>
 1       1901 Chemist… The … "\"in rec… 1/1                 160
 2       1901 Literat… The … "\"in spe… 1/1                 569
 3       1901 Medicine The … "\"for hi… 1/1                 293
 4       1901 Peace    The … <NA>       1/2                 462
 5       1901 Peace    The … <NA>       1/2                 463
 6       1901 Physics  The … "\"in rec… 1/1                   1
 7       1902 Chemist… The … "\"in rec… 1/1                 161
 8       1902 Literat… The … "\"the gr… 1/1                 571
 9       1902 Medicine The … "\"for hi… 1/1                 294
10       1902 Peace    The … <NA>       1/2                 464
# … with 959 more rows, and 12 more variables: laureate_type <chr>,
#   full_name <chr>, birth_date <date>, birth_city <chr>,
#   birth_country <chr>, gender <chr>, organization_name <chr>,
#   organization_city <chr>, organization_country <chr>,
#   death_date <date>, death_city <chr>, death_country <chr>
```
…
.column[.content[

```r
nobel_winners %>% 
* mutate(age_at_win = prize_year -
*          lubridate::year(birth_date))
```
]]
.column[.content.center[

```
# A tibble: 969 x 19
   prize_year category prize motivation prize_share laureate_id
        <int> <chr>    <chr> <chr>      <chr>             <int>
 1       1901 Chemist… The … "\"in rec… 1/1                 160
 2       1901 Literat… The … "\"in spe… 1/1                 569
 3       1901 Medicine The … "\"for hi… 1/1                 293
 4       1901 Peace    The … <NA>       1/2                 462
 5       1901 Peace    The … <NA>       1/2                 463
 6       1901 Physics  The … "\"in rec… 1/1                   1
 7       1902 Chemist… The … "\"in rec… 1/1                 161
 8       1902 Literat… The … "\"the gr… 1/1                 571
 9       1902 Medicine The … "\"for hi… 1/1                 294
10       1902 Peace    The … <NA>       1/2                 464
# … with 959 more rows, and 13 more variables: laureate_type <chr>,
#   full_name <chr>, birth_date <date>, birth_city <chr>,
#   birth_country <chr>, gender <chr>, organization_name <chr>,
#   organization_city <chr>, organization_country <chr>,
#   death_date <date>, death_city <chr>, death_country <chr>,
#   age_at_win <dbl>
```
…
---

class: split-40
count: false

.column[.content[

```r
*nobel_winners
```
]]
.column[.content.center[

```
# A tibble: 969 x 18
   prize_year category prize motivation prize_share laureate_id
        <int> <chr>    <chr> <chr>      <chr>             <int>
 1       1901 Chemist… The … "\"in rec… 1/1                 160
 2       1901 Literat… The … "\"in spe… 1/1                 569
 3       1901 Medicine The … "\"for hi… 1/1                 293
 4       1901 Peace    The … <NA>       1/2                 462
 5       1901 Peace    The … <NA>       1/2                 463
 6       1901 Physics  The … "\"in rec… 1/1                   1
 7       1902 Chemist… The … "\"in rec… 1/1                 161
 8       1902 Literat… The … "\"the gr… 1/1                 571
 9       1902 Medicine The … "\"for hi… 1/1                 294
10       1902 Peace    The … <NA>       1/2                 464
# … with 959 more rows, and 12 more variables: laureate_type <chr>,
#   full_name <chr>, birth_date <date>, birth_city <chr>,
#   birth_country <chr>, gender <chr>, organization_name <chr>,
#   organization_city <chr>, organization_country <chr>,
#   death_date <date>, death_city <chr>, death_country <chr>
```
…
.column[.content[

```r
nobel_winners %>% 
* mutate(age_at_win = prize_year -
*          lubridate::year(birth_date))
```
]]
.column[.content.center[

```
# A tibble: 969 x 19
   prize_year category prize motivation prize_share laureate_id
        <int> <chr>    <chr> <chr>      <chr>             <int>
 1       1901 Chemist… The … "\"in rec… 1/1                 160
 2       1901 Literat… The … "\"in spe… 1/1                 569
 3       1901 Medicine The … "\"for hi… 1/1                 293
 4       1901 Peace    The … <NA>       1/2                 462
 5       1901 Peace    The … <NA>       1/2                 463
 6       1901 Physics  The … "\"in rec… 1/1                   1
 7       1902 Chemist… The … "\"in rec… 1/1                 161
 8       1902 Literat… The … "\"the gr… 1/1                 571
 9       1902 Medicine The … "\"for hi… 1/1                 294
10       1902 Peace    The … <NA>       1/2                 464
# … with 959 more rows, and 13 more variables: laureate_type <chr>,
#   full_name <chr>, birth_date <date>, birth_city <chr>,
#   birth_country <chr>, gender <chr>, organization_name <chr>,
#   organization_city <chr>, organization_country <chr>,
#   death_date <date>, death_city <chr>, death_country <chr>,
#   age_at_win <dbl>
```
…
