ols
…
---

# *Observation* level

```r
cars_model %>% 
  broom::augment() 
```

```
## # A tibble: 50 x 9
##     dist speed .fitted .se.fit .resid   .hat .sigma  .cooksd .std.resid
##    <dbl> <dbl>   <dbl>   <dbl>  <dbl>  <dbl>  <dbl>    <dbl>      <dbl>
##  1     2     4   -1.85    5.21   3.85 0.115    15.5 0.00459       0.266
##  2    10     4   -1.85    5.21  11.8  0.115    15.4 0.0435        0.819
##  3     4     7    9.95    4.11  -5.95 0.0715   15.5 0.00620      -0.401
##  4    22     7    9.95    4.11  12.1  0.0715   15.4 0.0255        0.813
##  5    16     8   13.9     3.77   2.12 0.0600   15.5 0.000645      0.142
##  6    10     9   17.8     3.44  -7.81 0.0499   15.5 0.00713      -0.521
##  7    18    10   21.7     3.12  -3.74 0.0413   15.5 0.00133      -0.249
##  8    26    10   21.7     3.12   4.26 0.0413   15.5 0.00172       0.283
##  9    34    10   21.7     3.12  12.3  0.0413   15.4 0.0143        0.814
## 10    17    11   25.7     2.84  -8.68 0.0341   15.5 0.00582      -0.574
## # … with 40 more rows
```
…
```r
cars_model %>%  
* broom::augment()
```
]]
.column[.content[

```
## # A tibble: 50 x 9
##     dist speed .fitted .se.fit .resid   .hat .sigma  .cooksd .std.resid
##    <dbl> <dbl>   <dbl>   <dbl>  <dbl>  <dbl>  <dbl>    <dbl>      <dbl>
##  1     2     4   -1.85    5.21   3.85 0.115    15.5 0.00459       0.266
##  2    10     4   -1.85    5.21  11.8  0.115    15.4 0.0435        0.819
##  3     4     7    9.95    4.11  -5.95 0.0715   15.5 0.00620      -0.401
##  4    22     7    9.95    4.11  12.1  0.0715   15.4 0.0255        0.813
##  5    16     8   13.9     3.77   2.12 0.0600   15.5 0.000645      0.142
##  6    10     9   17.8     3.44  -7.81 0.0499   15.5 0.00713      -0.521
##  7    18    10   21.7     3.12  -3.74 0.0413   15.5 0.00133      -0.249
##  8    26    10   21.7     3.12   4.26 0.0413   15.5 0.00172       0.283
##  9    34    10   21.7     3.12  12.3  0.0413   15.4 0.0143        0.814
## 10    17    11   25.7     2.84  -8.68 0.0341   15.5 0.00582      -0.574
## # … with 40 more rows
```
…
```r
cars_model %>%  
* broom::augment()
```
]]
.column[.content[

```
## # A tibble: 50 x 9
##     dist speed .fitted .se.fit .resid   .hat .sigma  .cooksd .std.resid
##    <dbl> <dbl>   <dbl>   <dbl>  <dbl>  <dbl>  <dbl>    <dbl>      <dbl>
##  1     2     4   -1.85    5.21   3.85 0.115    15.5 0.00459       0.266
##  2    10     4   -1.85    5.21  11.8  0.115    15.4 0.0435        0.819
##  3     4     7    9.95    4.11  -5.95 0.0715   15.5 0.00620      -0.401
##  4    22     7    9.95    4.11  12.1  0.0715   15.4 0.0255        0.813
##  5    16     8   13.9     3.77   2.12 0.0600   15.5 0.000645      0.142
##  6    10     9   17.8     3.44  -7.81 0.0499   15.5 0.00713      -0.521
##  7    18    10   21.7     3.12  -3.74 0.0413   15.5 0.00133      -0.249
##  8    26    10   21.7     3.12   4.26 0.0413   15.5 0.00172       0.283
##  9    34    10   21.7     3.12  12.3  0.0413   15.4 0.0143        0.814
## 10    17    11   25.7     2.84  -8.68 0.0341   15.5 0.00582      -0.574
## # … with 40 more rows
```
…
```r
cars_model %>%  
* broom::augment()
```
]]
.column[.content[

```
## # A tibble: 50 x 9
##     dist speed .fitted .se.fit .resid   .hat .sigma  .cooksd .std.resid
##    <dbl> <dbl>   <dbl>   <dbl>  <dbl>  <dbl>  <dbl>    <dbl>      <dbl>
##  1     2     4   -1.85    5.21   3.85 0.115    15.5 0.00459       0.266
##  2    10     4   -1.85    5.21  11.8  0.115    15.4 0.0435        0.819
##  3     4     7    9.95    4.11  -5.95 0.0715   15.5 0.00620      -0.401
##  4    22     7    9.95    4.11  12.1  0.0715   15.4 0.0255        0.813
##  5    16     8   13.9     3.77   2.12 0.0600   15.5 0.000645      0.142
##  6    10     9   17.8     3.44  -7.81 0.0499   15.5 0.00713      -0.521
##  7    18    10   21.7     3.12  -3.74 0.0413   15.5 0.00133      -0.249
##  8    26    10   21.7     3.12   4.26 0.0413   15.5 0.00172       0.283
##  9    34    10   21.7     3.12  12.3  0.0413   15.4 0.0143        0.814
## 10    17    11   25.7     2.84  -8.68 0.0341   15.5 0.00582      -0.574
## # … with 40 more rows
```
…
```r
cars_model %>%  
  broom::augment() %>%  
* mutate(id = row_number())
```
]]
.column[.content[

```
## # A tibble: 50 x 10
##     dist speed .fitted .se.fit .resid   .hat .sigma  .cooksd .std.resid    id
##    <dbl> <dbl>   <dbl>   <dbl>  <dbl>  <dbl>  <dbl>    <dbl>      <dbl> <int>
##  1     2     4   -1.85    5.21   3.85 0.115    15.5 0.00459       0.266     1
##  2    10     4   -1.85    5.21  11.8  0.115    15.4 0.0435        0.819     2
##  3     4     7    9.95    4.11  -5.95 0.0715   15.5 0.00620      -0.401     3
##  4    22     7    9.95    4.11  12.1  0.0715   15.4 0.0255        0.813     4
##  5    16     8   13.9     3.77   2.12 0.0600   15.5 0.000645      0.142     5
##  6    10     9   17.8     3.44  -7.81 0.0499   15.5 0.00713      -0.521     6
##  7    18    10   21.7     3.12  -3.74 0.0413   15.5 0.00133      -0.249     7
##  8    26    10   21.7     3.12   4.26 0.0413   15.5 0.00172       0.283     8
##  9    34    10   21.7     3.12  12.3  0.0413   15.4 0.0143        0.814     9
## 10    17    11   25.7     2.84  -8.68 0.0341   15.5 0.00582      -0.574    10
## # … with 40 more rows
```
…
```r
cars_model %>%  
* broom::augment()
```
]]
.column[.content[

```
## # A tibble: 50 x 9
##     dist speed .fitted .se.fit .resid   .hat .sigma  .cooksd .std.resid
##    <dbl> <dbl>   <dbl>   <dbl>  <dbl>  <dbl>  <dbl>    <dbl>      <dbl>
##  1     2     4   -1.85    5.21   3.85 0.115    15.5 0.00459       0.266
##  2    10     4   -1.85    5.21  11.8  0.115    15.4 0.0435        0.819
##  3     4     7    9.95    4.11  -5.95 0.0715   15.5 0.00620      -0.401
##  4    22     7    9.95    4.11  12.1  0.0715   15.4 0.0255        0.813
##  5    16     8   13.9     3.77   2.12 0.0600   15.5 0.000645      0.142
##  6    10     9   17.8     3.44  -7.81 0.0499   15.5 0.00713      -0.521
##  7    18    10   21.7     3.12  -3.74 0.0413   15.5 0.00133      -0.249
##  8    26    10   21.7     3.12   4.26 0.0413   15.5 0.00172       0.283
##  9    34    10   21.7     3.12  12.3  0.0413   15.4 0.0143        0.814
## 10    17    11   25.7     2.84  -8.68 0.0341   15.5 0.00582      -0.574
## # … with 40 more rows
```
…
```r
cars_model %>%  
  broom::augment() %>%  
* mutate(expected = qnorm((1:n() - .5)/n()))
```
]]
.column[.content[

```
## # A tibble: 50 x 10
##     dist speed .fitted .se.fit .resid   .hat .sigma  .cooksd .std.resid expected
##    <dbl> <dbl>   <dbl>   <dbl>  <dbl>  <dbl>  <dbl>    <dbl>      <dbl>    <dbl>
##  1     2     4   -1.85    5.21   3.85 0.115    15.5 0.00459       0.266   -2.33 
##  2    10     4   -1.85    5.21  11.8  0.115    15.4 0.0435        0.819   -1.88 
##  3     4     7    9.95    4.11  -5.95 0.0715   15.5 0.00620      -0.401   -1.64 
##  4    22     7    9.95    4.11  12.1  0.0715   15.4 0.0255        0.813   -1.48 
##  5    16     8   13.9     3.77   2.12 0.0600   15.5 0.000645      0.142   -1.34 
##  6    10     9   17.8     3.44  -7.81 0.0499   15.5 0.00713      -0.521   -1.23 
##  7    18    10   21.7     3.12  -3.74 0.0413   15.5 0.00133      -0.249   -1.13 
##  8    26    10   21.7     3.12   4.26 0.0413   15.5 0.00172       0.283   -1.04 
##  9    34    10   21.7     3.12  12.3  0.0413   15.4 0.0143        0.814   -0.954
## 10    17    11   25.7     2.84  -8.68 0.0341   15.5 0.00582      -0.574   -0.878
## # … with 40 more rows
```
…
