Cool with statistical independence
…
```r
*library(tidyverse)
*set.seed(98735)
*tibble(tail_length = rnorm(n = 50),
*      brain_weight = rnorm(n = 50)) ->
*my_data; my_data
```
]]
.column[.content[

```
## # A tibble: 50 x 2
##    tail_length brain_weight
##          <dbl>        <dbl>
##  1      -1.64       -0.530 
##  2      -0.107      -0.744 
##  3       0.185       0.476 
##  4       1.36        1.32  
##  5       0.210      -0.0852
##  6      -0.658      -1.36  
##  7       1.53       -1.18  
##  8       1.40       -0.867 
##  9       1.54        0.115 
## 10       0.131       0.960 
## # … with 40 more rows
```
…
```
## # A tibble: 50 x 2
##    tail_length brain_weight
##          <dbl>        <dbl>
##  1      -1.64       -0.530 
##  2      -0.107      -0.744 
##  3       0.185       0.476 
##  4       1.36        1.32  
##  5       0.210      -0.0852
##  6      -0.658      -1.36  
##  7       1.53       -1.18  
##  8       1.40       -0.867 
##  9       1.54        0.115 
## 10       0.131       0.960 
## # … with 40 more rows
```
…
```
## # A tibble: 50 x 2
##    tail_length brain_weight
##          <dbl>        <dbl>
##  1      -1.64       -0.530 
##  2      -0.107      -0.744 
##  3       0.185       0.476 
##  4       1.36        1.32  
##  5       0.210      -0.0852
##  6      -0.658      -1.36  
##  7       1.53       -1.18  
##  8       1.40       -0.867 
##  9       1.54        0.115 
## 10       0.131       0.960 
## # … with 40 more rows
```
…
cor.test(x = my_data$tail_length, 
              y = my_data$brain_weight)
```
]]

.column[.content[

```
    # A tibble: 50 x 2
       tail_length brain_weight
             <dbl>        <dbl>
     1       1.24       -0.451 
     2       0.544       0.243 
     3      -0.487       0.395 
     4      -1.09        0.492 
     5       0.468       0.0326
     6      -1.29        0.848 
     7       1.72        0.391 
     8      -0.435      -0.231 
     9       1.06       -1.67  
    10      -0.575      -0.403 
    # … with 40 more rows
```
…
cor.test(x = my_data$tail_length, 
              y = my_data$brain_weight)
```
]]

.column[.content[

```
    # A tibble: 50 x 2
       tail_length brain_weight
             <dbl>        <dbl>
     1     0.974         0.0539
     2     0.492         0.120 
     3    -2.13          1.60  
     4    -0.399         1.32  
     5     0.0229        0.0214
     6     2.08         -1.01  
     7     0.0487        0.946 
     8    -0.271        -0.423 
     9     0.00936       2.63  
    10    -0.802        -1.45  
    # … with 40 more rows
```
…
cor.test(x = my_data$tail_length, 
              y = my_data$brain_weight)
```
]]

.column[.content[

```
    # A tibble: 50 x 2
       tail_length brain_weight
             <dbl>        <dbl>
     1      -0.151       1.02  
     2      -0.376       0.165 
     3       0.904       0.401 
     4      -0.663      -0.119 
     5       0.935       1.05  
     6       1.99        0.313 
     7      -0.184      -1.29  
     8      -1.04        0.0910
     9      -0.930       1.72  
    10       0.220       0.159 
    # … with 40 more rows
```
…
cor.test(x = my_data$tail_length, 
              y = my_data$brain_weight)
```
]]

.column[.content[

```
    # A tibble: 50 x 2
       tail_length brain_weight
             <dbl>        <dbl>
     1      1.09        -1.18  
     2      0.675        0.374 
     3      0.376        0.796 
     4      0.336        1.08  
     5      0.658        1.24  
     6      0.770       -2.36  
     7     -0.0154      -0.0436
     8      0.580        0.938 
     9      0.425       -0.277 
    10     -0.587       -3.19  
    # … with 40 more rows
```
…
cor.test(x = my_data$tail_length, 
              y = my_data$brain_weight)
```
]]

.column[.content[

```
    # A tibble: 50 x 2
       tail_length brain_weight
             <dbl>        <dbl>
     1     0.763         0.117 
     2     0.919         0.488 
     3     0.305         0.953 
     4    -0.414        -0.128 
     5    -0.711        -0.403 
     6     0.490        -1.34  
     7    -0.371        -0.218 
     8     0.211         0.0994
     9     0.447         0.269 
    10    -0.00654      -0.798 
    # … with 40 more rows
```
…
cor.test(x = my_data$tail_length, 
              y = my_data$brain_weight)
```
]]

.column[.content[

```
    # A tibble: 50 x 2
       tail_length brain_weight
             <dbl>        <dbl>
     1     -0.195        -0.573
     2      1.12         -0.930
     3     -0.458         1.45 
     4     -0.951        -1.82 
     5      0.0230       -1.89 
     6     -2.29         -0.228
     7     -0.189        -0.412
     8     -0.263        -0.937
     9      0.740         1.08 
    10      0.164         0.391
    # … with 40 more rows
```
…
cor.test(x = my_data$tail_length, 
              y = my_data$brain_weight)
```
]]

.column[.content[

```
    # A tibble: 50 x 2
       tail_length brain_weight
             <dbl>        <dbl>
     1      2.22        -0.136 
     2     -0.132       -1.37  
     3     -0.0893      -0.914 
     4      0.963        0.0931
     5     -0.250       -0.522 
     6     -0.472        0.354 
     7     -0.408       -0.342 
     8      1.25        -2.36  
     9      1.14         0.361 
    10     -0.303        0.778 
    # … with 40 more rows
```
…
t.test(height_data$height ~ # the continuous variable by (~)
         height_data$sex) # the discrete variable
```
]]

.column[.content[

```
    # A tibble: 50 x 2
       sex    height
       <chr>   <dbl>
     1 male     5.72
     2 female   5.58
     3 male     4.60
     4 male     6.39
     5 female   5.25
     6 male     5.83
     7 male     5.97
     8 male     5.39
     9 male     5.75
    10 female   5.94
    # … with 40 more rows
```
…
t.test(height_data$height ~ # the continuous variable by (~)
         height_data$sex) # the discrete variable
```
]]

.column[.content[

```
    # A tibble: 50 x 2
       sex    height
       <chr>   <dbl>
     1 female   5.11
     2 male     5.19
     3 male     5.35
     4 female   5.90
     5 male     5.22
     6 female   5.93
     7 female   5.63
     8 male     6.14
     9 female   4.83
    10 male     5.57
    # … with 40 more rows
```
…
t.test(height_data$height ~ # the continuous variable by (~)
         height_data$sex) # the discrete variable
```
]]

.column[.content[

```
    # A tibble: 50 x 2
       sex    height
       <chr>   <dbl>
     1 male     5.80
     2 female   6.17
     3 female   5.36
     4 female   5.81
     5 male     6.04
     6 male     6.87
     7 male     5.51
     8 male     5.50
     9 male     5.09
    10 male     5.51
    # … with 40 more rows
```
…
t.test(height_data$height ~ # the continuous variable by (~)
         height_data$sex) # the discrete variable
```
]]

.column[.content[

```
    # A tibble: 50 x 2
       sex    height
       <chr>   <dbl>
     1 male     6.17
     2 female   6.60
     3 male     5.43
     4 female   5.19
     5 male     5.61
     6 female   4.32
     7 male     5.01
     8 male     5.90
     9 male     4.79
    10 female   5.25
    # … with 40 more rows
```
…
TukeyHSD(aov(height_data$height ~ # the continuous variable by (~)
         height_data$sex)) # the discrete variable
```
]]

.column[.content[

```
    # A tibble: 50 x 2
       sex    height
       <chr>   <dbl>
     1 3rd   -0.971 
     2 2nd    0.0631
     3 Crew  -0.217 
     4 3rd    0.0406
     5 2nd   -0.460 
     6 Crew   0.711 
     7 3rd    0.821 
     8 1st   -1.04  
     9 3rd    0.235 
    10 1st   -1.07  
    # … with 40 more rows
```
…
TukeyHSD(aov(height_data$height ~ # the continuous variable by (~)
         height_data$sex)) # the discrete variable
```
]]

.column[.content[

```
    # A tibble: 50 x 2
       sex    height
       <chr>   <dbl>
     1 Crew   0.0565
     2 Crew  -1.84  
     3 1st   -2.18  
     4 2nd   -0.0435
     5 Crew  -0.477 
     6 2nd   -0.902 
     7 Crew   0.341 
     8 1st    0.321 
     9 1st   -1.44  
    10 1st   -1.07  
    # … with 40 more rows
```
…
TukeyHSD(aov(height_data$height ~ # the continuous variable by (~)
         height_data$sex)) # the discrete variable
```
]]

.column[.content[

```
    # A tibble: 50 x 2
       sex   height
       <chr>  <dbl>
     1 1st   -1.92 
     2 1st   -0.927
     3 3rd    0.995
     4 Crew   1.05 
     5 Crew  -0.155
     6 Crew   0.950
     7 1st    1.16 
     8 1st    0.904
     9 3rd    0.196
    10 Crew   1.11 
    # … with 40 more rows
```
…
TukeyHSD(aov(height_data$height ~ # the continuous variable by (~)
         height_data$sex)) # the discrete variable
```
]]

.column[.content[

```
    # A tibble: 50 x 2
       sex    height
       <chr>   <dbl>
     1 1st    0.477 
     2 2nd   -0.449 
     3 3rd    1.33  
     4 Crew   0.455 
     5 1st    0.466 
     6 1st   -0.434 
     7 3rd    0.0869
     8 3rd   -0.824 
     9 1st   -0.579 
    10 2nd    2.03  
    # … with 40 more rows
```
…
TukeyHSD(aov(height_data$height ~ # the continuous variable by (~)
         height_data$sex)) # the discrete variable
```
]]

.column[.content[

```
    # A tibble: 50 x 2
       sex    height
       <chr>   <dbl>
     1 2nd    0.172 
     2 Crew   1.46  
     3 2nd    0.430 
     4 Crew  -1.09  
     5 Crew  -0.135 
     6 3rd    0.716 
     7 2nd    0.257 
     8 3rd    0.651 
     9 1st   -0.0976
    10 Crew  -1.42  
    # … with 40 more rows
```
…
table(x = my_data$sex, y = my_data$handed)

chisq.test(x = my_data$sex, 
           y = my_data$handed) 
```
]]

.column[.content[

```
    # A tibble: 100 x 2
       sex    handed
       <chr>  <chr> 
     1 female left  
     2 male   right 
     3 male   right 
     4 male   left  
     5 male   left  
     6 male   right 
     7 male   right 
     8 male   left  
     9 female right 
    10 male   right 
    # … with 90 more rows
```
…
table(x = my_data$sex, y = my_data$handed)

chisq.test(x = my_data$sex, 
           y = my_data$handed) 
```
]]

.column[.content[

```
    # A tibble: 100 x 2
       sex    handed
       <chr>  <chr> 
     1 male   right 
     2 female right 
     3 male   left  
     4 male   right 
     5 male   right 
     6 female right 
     7 female right 
     8 male   right 
     9 male   right 
    10 male   right 
    # … with 90 more rows
```
…
table(x = my_data$sex, y = my_data$handed)

chisq.test(x = my_data$sex, 
           y = my_data$handed) 
```
]]

.column[.content[

```
    # A tibble: 100 x 2
       sex    handed
       <chr>  <chr> 
     1 male   right 
     2 female left  
     3 male   left  
     4 male   left  
     5 female right 
     6 male   left  
     7 female right 
     8 male   right 
     9 male   left  
    10 male   right 
    # … with 90 more rows
```
…
table(x = my_data$sex, y = my_data$handed)

chisq.test(x = my_data$sex, 
           y = my_data$handed) 
```
]]

.column[.content[

```
    # A tibble: 100 x 2
       sex    handed
       <chr>  <chr> 
     1 male   left  
     2 male   right 
     3 male   left  
     4 female left  
     5 male   left  
     6 female right 
     7 female right 
     8 male   right 
     9 male   right 
    10 female right 
    # … with 90 more rows
```
…
table(x = my_data$sex, y = my_data$handed)

chisq.test(x = my_data$sex, 
           y = my_data$handed) 
```
]]

.column[.content[

```
    # A tibble: 100 x 2
       sex    handed
       <chr>  <chr> 
     1 female right 
     2 male   left  
     3 female right 
     4 female right 
     5 female right 
     6 female right 
     7 female right 
     8 female right 
     9 female left  
    10 female right 
    # … with 90 more rows
```
…
table(x = my_data$sex, y = my_data$handed)

chisq.test(x = my_data$sex, 
           y = my_data$handed) 
```
]]

.column[.content[

```
    # A tibble: 100 x 2
       sex    handed
       <chr>  <chr> 
     1 male   right 
     2 female right 
     3 female right 
     4 female right 
     5 male   right 
     6 female right 
     7 male   left  
     8 female left  
     9 male   right 
    10 female left  
    # … with 90 more rows
```
…
table(x = my_data$sex, y = my_data$handed)

chisq.test(x = my_data$sex, 
           y = my_data$handed) 
```
]]

.column[.content[

```
    # A tibble: 100 x 2
       sex    handed
       <chr>  <chr> 
     1 male   right 
     2 male   right 
     3 male   right 
     4 male   right 
     5 male   right 
     6 female right 
     7 female left  
     8 female right 
     9 male   left  
    10 male   right 
    # … with 90 more rows
```
…
table(x = my_data$sex, y = my_data$handed)

chisq.test(x = my_data$sex, 
           y = my_data$handed) 
```
]]

.column[.content[

```
    # A tibble: 100 x 2
       sex    handed
       <chr>  <chr> 
     1 female right 
     2 male   left  
     3 female right 
     4 female right 
     5 female left  
     6 male   right 
     7 female left  
     8 male   right 
     9 male   right 
    10 female left  
    # … with 90 more rows
```
…
library(ggmosaic) # geom_mosaic() and product()
ggplot(data = fake_titanic) +
  geom_mosaic(aes(x = product(class),
                  fill = survive))

chisq.test(x = fake_titanic$class, 
           y = fake_titanic$survive) 
```
]]

.column[.content[

```
    # A tibble: 50 x 2
       class survive
       <chr> <chr>  
     1 2nd   Survive
     2 2nd   Survive
     3 1st   Survive
     4 3rd   Perish 
     5 2nd   Perish 
     6 Crew  Perish 
     7 Crew  Perish 
     8 3rd   Perish 
     9 3rd   Perish 
    10 2nd   Perish 
    # … with 40 more rows
```
…
library(ggmosaic) # geom_mosaic() and product()
ggplot(data = fake_titanic) +
  geom_mosaic(aes(x = product(class),
                  fill = survive))

chisq.test(x = fake_titanic$class, 
           y = fake_titanic$survive) 
```
]]

.column[.content[

```
    # A tibble: 50 x 2
       class survive
       <chr> <chr>  
     1 Crew  Perish 
     2 Crew  Perish 
     3 3rd   Perish 
     4 2nd   Perish 
     5 2nd   Perish 
     6 3rd   Survive
     7 1st   Perish 
     8 3rd   Perish 
     9 3rd   Perish 
    10 3rd   Perish 
    # … with 40 more rows
```
…
library(ggmosaic) # geom_mosaic() and product()
ggplot(data = fake_titanic) +
  geom_mosaic(aes(x = product(class),
                  fill = survive))

chisq.test(x = fake_titanic$class, 
           y = fake_titanic$survive) 
```
]]

.column[.content[

```
    # A tibble: 50 x 2
       class survive
       <chr> <chr>  
     1 3rd   Perish 
     2 Crew  Perish 
     3 1st   Perish 
     4 1st   Survive
     5 Crew  Perish 
     6 2nd   Perish 
     7 1st   Survive
     8 Crew  Survive
     9 1st   Survive
    10 3rd   Perish 
    # … with 40 more rows
```
…
library(ggmosaic) # geom_mosaic() and product()
ggplot(data = fake_titanic) +
  geom_mosaic(aes(x = product(class),
                  fill = survive))

chisq.test(x = fake_titanic$class, 
           y = fake_titanic$survive) 
```
]]

.column[.content[

```
    # A tibble: 50 x 2
       class survive
       <chr> <chr>  
     1 3rd   Perish 
     2 2nd   Survive
     3 3rd   Survive
     4 1st   Perish 
     5 2nd   Perish 
     6 Crew  Perish 
     7 1st   Perish 
     8 1st   Perish 
     9 3rd   Perish 
    10 1st   Survive
    # … with 40 more rows
```
…
library(ggmosaic) # geom_mosaic() and product()
ggplot(data = fake_titanic) +
  geom_mosaic(aes(x = product(class),
                  fill = survive))

chisq.test(x = fake_titanic$class, 
           y = fake_titanic$survive) 
```
]]

.column[.content[

```
    # A tibble: 50 x 2
       class survive
       <chr> <chr>  
     1 2nd   Perish 
     2 Crew  Perish 
     3 3rd   Survive
     4 2nd   Survive
     5 Crew  Perish 
     6 Crew  Survive
     7 Crew  Survive
     8 1st   Perish 
     9 Crew  Perish 
    10 Crew  Perish 
    # … with 40 more rows
```
…
