core tidyverse downloads isotype plot
…
---

class: split-40
count: false
.column[.content[

```r
*package_download_2018_09_10
```
]]
.column[.content[

```
## # A tibble: 2,042,951 x 10
##    date       time       size r_version r_arch r_os  package version
##    <date>     <time>    <dbl> <chr>     <chr>  <chr> <chr>   <chr>  
##  1 2018-09-10 05:17:46 7.50e4 3.5.1     x86_64 ming… cairoD… 2.25   
##  2 2018-09-10 05:17:29 1.09e5 3.5.1     x86_64 ming… glue    1.3.0  
##  3 2018-09-10 05:17:32 1.56e5 3.5.1     x86_64 ming… magrit… 1.5    
##  4 2018-09-10 05:17:48 4.42e6 3.4.4     i386   ming… Rcpp    0.12.18
##  5 2018-09-10 05:17:49 3.42e4 3.5.1     x86_64 darw… miniUI  0.1.1.1
##  6 2018-09-10 05:17:51 1.36e6 3.5.1     x86_64 darw… webshot 0.5.0  
##  7 2018-09-10 05:17:55 9.31e5 3.5.1     x86_64 darw… xml2    1.2.0  
##  8 2018-09-10 05:17:52 9.69e5 3.4.4     x86_64 ming… SparseM 1.77   
##  9 2018-09-10 05:17:40 3.93e5 3.4.1     x86_64 linu… plyr    1.8.4  
## 10 2018-09-10 05:17:56 1.03e5 3.5.1     x86_64 darw… cellra… 1.1.0  
## # … with 2,042,941 more rows, and 2 more variables: country <chr>,
## #   ip_id <dbl>
```
]]
---
class: split-40
count: false
.column[.content[

```r
package_download_2018_09_10 %>% 
* group_by(package)
```
]]
.column[.content[

```
## # A tibble: 2,042,951 x 10
## # Groups:   package [13,272]
##    date       time       size r_version r_arch r_os  package version
##    <date>     <time>    <dbl> <chr>     <chr>  <chr> <chr>   <chr>  
##  1 2018-09-10 05:17:46 7.50e4 3.5.1     x86_64 ming… cairoD… 2.25   
##  2 2018-09-10 05:17:29 1.09e5 3.5.1     x86_64 ming… glue    1.3.0  
##  3 2018-09-10 05:17:32 1.56e5 3.5.1     x86_64 ming… magrit… 1.5    
##  4 2018-09-10 05:17:48 4.42e6 3.4.4     i386   ming… Rcpp    0.12.18
##  5 2018-09-10 05:17:49 3.42e4 3.5.1     x86_64 darw… miniUI  0.1.1.1
##  6 2018-09-10 05:17:51 1.36e6 3.5.1     x86_64 darw… webshot 0.5.0  
##  7 2018-09-10 05:17:55 9.31e5 3.5.1     x86_64 darw… xml2    1.2.0  
##  8 2018-09-10 05:17:52 9.69e5 3.4.4     x86_64 ming… SparseM 1.77   
##  9 2018-09-10 05:17:40 3.93e5 3.4.1     x86_64 linu… plyr    1.8.4  
## 10 2018-09-10 05:17:56 1.03e5 3.5.1     x86_64 darw… cellra… 1.1.0  
## # … with 2,042,941 more rows, and 2 more variables: country <chr>,
## #   ip_id <dbl>
```
…
```r
package_download_2018_09_10 %>% 
  group_by(package) %>% 
* summarise(num_downloads = n())
```
]]
.column[.content[

```
## # A tibble: 13,272 x 2
##    package     num_downloads
##    <chr>               <int>
##  1 A3                     30
##  2 abbyyR                 20
##  3 abc                    51
##  4 abc.data               48
##  5 ABC.RAP                 9
##  6 ABCanalysis            10
##  7 abcdeFBA                9
##  8 ABCExtremes             1
##  9 ABCoptim               15
## 10 ABCp2                  11
## # … with 13,262 more rows
```
…
