D’Hondt/Jefferson Allocation
…
```
  # A tibble: 72 x 6
     party    votes divisor dh_outcome time        position
     <chr>    <int>   <int>      <dbl> <chr>          <dbl>
   1 equality  6822       1      6822  position_t2        1
   2 peace     6565       1      6565  position_t2       13
   3 justice   4548       1      4548  position_t2        7
   4 equality  6822       2      3411  position_t2        2
   5 peace     6565       2      3282. position_t2       14
   6 equality  6822       3      2274  position_t2        3
   7 justice   4548       2      2274  position_t2        8
   8 peace     6565       3      2188. position_t2       15
   9 equality  6822       4      1706. position_t2        4
  10 peace     6565       4      1641. position_t2       16
  # … with 62 more rows
```
…
```
  # A tibble: 72 x 6
     party    votes divisor dh_outcome  time position
     <chr>    <int>   <int>      <dbl> <dbl>    <dbl>
   1 equality  6822       1      6822      2        1
   2 peace     6565       1      6565      2       13
   3 justice   4548       1      4548      2        7
   4 equality  6822       2      3411      2        2
   5 peace     6565       2      3282.     2       14
   6 equality  6822       3      2274      2        3
   7 justice   4548       2      2274      2        8
   8 peace     6565       3      2188.     2       15
   9 equality  6822       4      1706.     2        4
  10 peace     6565       4      1641.     2       16
  # … with 62 more rows
```
…
---

class: split-40
count: false
.column[.content[

```r
*animation_prep
```
]]
.column[.content[

```
  # A tibble: 72 x 6
     party    votes divisor dh_outcome  time position
     <chr>    <int>   <int>      <dbl> <dbl>    <dbl>
   1 equality  6822       1      6822      2        1
   2 peace     6565       1      6565      2       13
   3 justice   4548       1      4548      2        7
   4 equality  6822       2      3411      2        2
   5 peace     6565       2      3282.     2       14
   6 equality  6822       3      2274      2        3
   7 justice   4548       2      2274      2        8
   8 peace     6565       3      2188.     2       15
   9 equality  6822       4      1706.     2        4
  10 peace     6565       4      1641.     2       16
  # … with 62 more rows
```
…
