data cleaning flipbook
…
```r
fisheries_2015_raw %>%  
* as_tibble()   # show data in "tidyverse" way, as_tibble
```
]]
.column[.content[

```
  # A tibble: 217 x 4
     Country       Capture    Aquaculture Total     
     <chr>         <chr>      <chr>       <chr>     
   1 China         17,800,000 63,700,000  81,500,000
   2 Indonesia     6,584,419  16,600,000  23,200,000
   3 India         5,082,332  5,703,002   10,800,000
   4 Vietnam       2,785,940  3,634,531   6,420,471 
   5 United States 4,931,017  444,369     5,375,386 
   6 Russia        4,773,413  173,840     4,947,253 
   7 Japan         3,275,263  1,067,994   4,343,257 
   8 Philippines   2,027,992  2,200,914   4,228,906 
   9 Peru          3,811,802  100,187     3,911,989 
  10 Bangladesh    1,674,770  2,203,554   3,878,324 
  # … with 207 more rows
```
…
```r
fisheries_2015_raw %>%  
  as_tibble() %>%  # show data in "tidyverse" way, as_tibble
* # you may need to install the janitor package for this next step
* # if you have not already done so
* janitor::clean_names(case = "snake")   # snake is the default too
```
]]
.column[.content[

```
  # A tibble: 217 x 4
     country       capture    aquaculture total     
     <chr>         <chr>      <chr>       <chr>     
   1 China         17,800,000 63,700,000  81,500,000
   2 Indonesia     6,584,419  16,600,000  23,200,000
   3 India         5,082,332  5,703,002   10,800,000
   4 Vietnam       2,785,940  3,634,531   6,420,471 
   5 United States 4,931,017  444,369     5,375,386 
   6 Russia        4,773,413  173,840     4,947,253 
   7 Japan         3,275,263  1,067,994   4,343,257 
   8 Philippines   2,027,992  2,200,914   4,228,906 
   9 Peru          3,811,802  100,187     3,911,989 
  10 Bangladesh    1,674,770  2,203,554   3,878,324 
  # … with 207 more rows
```
…
```r
fisheries_2015_raw %>%  
  as_tibble() %>%  # show data in "tidyverse" way, as_tibble
  # you may need to install the janitor package for this next step
  # if you have not already done so
  janitor::clean_names(case = "snake") %>%  # snake is the default too
* # converting columns to numeric 'dbl', which were character 'cha'
* mutate(capture =
*          readr::parse_number(x = capture))
```
]]
.column[.content[

```
  # A tibble: 217 x 4
     country        capture aquaculture total     
     <chr>            <dbl> <chr>       <chr>     
   1 China         17800000 63,700,000  81,500,000
   2 Indonesia      6584419 16,600,000  23,200,000
   3 India          5082332 5,703,002   10,800,000
   4 Vietnam        2785940 3,634,531   6,420,471 
   5 United States  4931017 444,369     5,375,386 
   6 Russia         4773413 173,840     4,947,253 
   7 Japan          3275263 1,067,994   4,343,257 
   8 Philippines    2027992 2,200,914   4,228,906 
   9 Peru           3811802 100,187     3,911,989 
  10 Bangladesh     1674770 2,203,554   3,878,324 
  # … with 207 more rows
```
…
```
  # A tibble: 217 x 4
     country        capture aquaculture total     
     <chr>            <dbl>       <dbl> <chr>     
   1 China         17800000    63700000 81,500,000
   2 Indonesia      6584419    16600000 23,200,000
   3 India          5082332     5703002 10,800,000
   4 Vietnam        2785940     3634531 6,420,471 
   5 United States  4931017      444369 5,375,386 
   6 Russia         4773413      173840 4,947,253 
   7 Japan          3275263     1067994 4,343,257 
   8 Philippines    2027992     2200914 4,228,906 
   9 Peru           3811802      100187 3,911,989 
  10 Bangladesh     1674770     2203554 3,878,324 
  # … with 207 more rows
```
…
```
  # A tibble: 217 x 4
     country        capture aquaculture    total
     <chr>            <dbl>       <dbl>    <dbl>
   1 China         17800000    63700000 81500000
   2 Indonesia      6584419    16600000 23200000
   3 India          5082332     5703002 10800000
   4 Vietnam        2785940     3634531  6420471
   5 United States  4931017      444369  5375386
   6 Russia         4773413      173840  4947253
   7 Japan          3275263     1067994  4343257
   8 Philippines    2027992     2200914  4228906
   9 Peru           3811802      100187  3911989
  10 Bangladesh     1674770     2203554  3878324
  # … with 207 more rows
```
…
```
  # A tibble: 217 x 4
     country        capture aquaculture    total
     <chr>            <dbl>       <dbl>    <dbl>
   1 China         17800000    63700000 81500000
   2 Indonesia      6584419    16600000 23200000
   3 India          5082332     5703002 10800000
   4 Vietnam        2785940     3634531  6420471
   5 United States  4931017      444369  5375386
   6 Russia         4773413      173840  4947253
   7 Japan          3275263     1067994  4343257
   8 Philippines    2027992     2200914  4228906
   9 Peru           3811802      100187  3911989
  10 Bangladesh     1674770     2203554  3878324
  # … with 207 more rows
```
…
```
  # A tibble: 217 x 5
     country        capture aquaculture    total region            
     <chr>            <dbl>       <dbl>    <dbl> <chr>             
   1 China         17800000    63700000 81500000 Eastern Asia      
   2 Indonesia      6584419    16600000 23200000 South-Eastern Asia
   3 India          5082332     5703002 10800000 Southern Asia     
   4 Vietnam        2785940     3634531  6420471 South-Eastern Asia
   5 United States  4931017      444369  5375386 Northern America  
   6 Russia         4773413      173840  4947253 Eastern Europe    
   7 Japan          3275263     1067994  4343257 Eastern Asia      
   8 Philippines    2027992     2200914  4228906 South-Eastern Asia
   9 Peru           3811802      100187  3911989 South America     
  10 Bangladesh     1674770     2203554  3878324 Southern Asia     
  # … with 207 more rows
```
…
```
  # A tibble: 217 x 6
     country        capture aquaculture    total region             iso3c
     <chr>            <dbl>       <dbl>    <dbl> <chr>              <chr>
   1 China         17800000    63700000 81500000 Eastern Asia       CHN  
   2 Indonesia      6584419    16600000 23200000 South-Eastern Asia IDN  
   3 India          5082332     5703002 10800000 Southern Asia      IND  
   4 Vietnam        2785940     3634531  6420471 South-Eastern Asia VNM  
   5 United States  4931017      444369  5375386 Northern America   USA  
   6 Russia         4773413      173840  4947253 Eastern Europe     RUS  
   7 Japan          3275263     1067994  4343257 Eastern Asia       JPN  
   8 Philippines    2027992     2200914  4228906 South-Eastern Asia PHL  
   9 Peru           3811802      100187  3911989 South America      PER  
  10 Bangladesh     1674770     2203554  3878324 Southern Asia      BGD  
  # … with 207 more rows
```
…
```
  # A tibble: 216 x 6
     country        capture aquaculture    total region             iso3c
     <chr>            <dbl>       <dbl>    <dbl> <chr>              <chr>
   1 China         17800000    63700000 81500000 Eastern Asia       CHN  
   2 Indonesia      6584419    16600000 23200000 South-Eastern Asia IDN  
   3 India          5082332     5703002 10800000 Southern Asia      IND  
   4 Vietnam        2785940     3634531  6420471 South-Eastern Asia VNM  
   5 United States  4931017      444369  5375386 Northern America   USA  
   6 Russia         4773413      173840  4947253 Eastern Europe     RUS  
   7 Japan          3275263     1067994  4343257 Eastern Asia       JPN  
   8 Philippines    2027992     2200914  4228906 South-Eastern Asia PHL  
   9 Peru           3811802      100187  3911989 South America      PER  
  10 Bangladesh     1674770     2203554  3878324 Southern Asia      BGD  
  # … with 206 more rows
```
…
---

class: split-40
count: false
.column[.content[

```r
*wb_percent_forest_raw
```
]]
.column[.content[

```
  # A tibble: 264 x 63
     `Country Name` `Country Code` `Indicator Name` `Indicator Code` `1960`
     <chr>          <chr>          <chr>            <chr>            <lgl> 
   1 Aruba          ABW            Forest area (% … AG.LND.FRST.ZS   NA    
   2 Afghanistan    AFG            Forest area (% … AG.LND.FRST.ZS   NA    
   3 Angola         AGO            Forest area (% … AG.LND.FRST.ZS   NA    
   4 Albania        ALB            Forest area (% … AG.LND.FRST.ZS   NA    
   5 Andorra        AND            Forest area (% … AG.LND.FRST.ZS   NA    
   6 Arab World     ARB            Forest area (% … AG.LND.FRST.ZS   NA    
   7 United Arab E… ARE            Forest area (% … AG.LND.FRST.ZS   NA    
   8 Argentina      ARG            Forest area (% … AG.LND.FRST.ZS   NA    
   9 Armenia        ARM            Forest area (% … AG.LND.FRST.ZS   NA    
  10 American Samoa ASM            Forest area (% … AG.LND.FRST.ZS   NA    
  # … with 254 more rows, and 58 more variables: `1961` <lgl>, `1962` <lgl>,
  #   `1963` <lgl>, `1964` <lgl>, `1965` <lgl>, `1966` <lgl>, `1967` <lgl>,
  #   `1968` <lgl>, `1969` <lgl>, `1970` <lgl>, `1971` <lgl>, `1972` <lgl>,
  #   `1973` <lgl>, `1974` <lgl>, `1975` <lgl>, `1976` <lgl>, `1977` <lgl>,
  #   `1978` <lgl>, `1979` <lgl>, `1980` <lgl>, `1981` <lgl>, `1982` <lgl>,
  #   `1983` <lgl>, `1984` <lgl>, `1985` <lgl>, `1986` <lgl>, `1987` <lgl>,
  #   `1988` <lgl>, `1989` <lgl>, `1990` <dbl>, `1991` <dbl>, `1992` <dbl>,
  #   `1993` <dbl>, `1994` <dbl>, `1995` <dbl>, `1996` <dbl>, `1997` <dbl>,
  #   `1998` <dbl>, `1999` <dbl>, `2000` <dbl>, `2001` <dbl>, `2002` <dbl>,
…
```r
wb_percent_forest_raw %>%  
* # change names to snake case
* janitor::clean_names()
```
]]
.column[.content[

```
  # A tibble: 264 x 63
     country_name country_code indicator_name indicator_code x1960 x1961
     <chr>        <chr>        <chr>          <chr>          <lgl> <lgl>
   1 Aruba        ABW          Forest area (… AG.LND.FRST.ZS NA    NA   
   2 Afghanistan  AFG          Forest area (… AG.LND.FRST.ZS NA    NA   
   3 Angola       AGO          Forest area (… AG.LND.FRST.ZS NA    NA   
   4 Albania      ALB          Forest area (… AG.LND.FRST.ZS NA    NA   
   5 Andorra      AND          Forest area (… AG.LND.FRST.ZS NA    NA   
   6 Arab World   ARB          Forest area (… AG.LND.FRST.ZS NA    NA   
   7 United Arab… ARE          Forest area (… AG.LND.FRST.ZS NA    NA   
   8 Argentina    ARG          Forest area (… AG.LND.FRST.ZS NA    NA   
   9 Armenia      ARM          Forest area (… AG.LND.FRST.ZS NA    NA   
  10 American Sa… ASM          Forest area (… AG.LND.FRST.ZS NA    NA   
  # … with 254 more rows, and 57 more variables: x1962 <lgl>, x1963 <lgl>,
  #   x1964 <lgl>, x1965 <lgl>, x1966 <lgl>, x1967 <lgl>, x1968 <lgl>,
  #   x1969 <lgl>, x1970 <lgl>, x1971 <lgl>, x1972 <lgl>, x1973 <lgl>,
  #   x1974 <lgl>, x1975 <lgl>, x1976 <lgl>, x1977 <lgl>, x1978 <lgl>,
  #   x1979 <lgl>, x1980 <lgl>, x1981 <lgl>, x1982 <lgl>, x1983 <lgl>,
  #   x1984 <lgl>, x1985 <lgl>, x1986 <lgl>, x1987 <lgl>, x1988 <lgl>,
  #   x1989 <lgl>, x1990 <dbl>, x1991 <dbl>, x1992 <dbl>, x1993 <dbl>,
  #   x1994 <dbl>, x1995 <dbl>, x1996 <dbl>, x1997 <dbl>, x1998 <dbl>,
  #   x1999 <dbl>, x2000 <dbl>, x2001 <dbl>, x2002 <dbl>, x2003 <dbl>,
…
```r
wb_percent_forest_raw %>%  
  # change names to snake case
  janitor::clean_names() %>%  
* # get rid of columns that are not variables
* # indicator name and indicator code
* select(-indicator_name, -indicator_code)
```
]]
.column[.content[

```
  # A tibble: 264 x 61
     country_name country_code x1960 x1961 x1962 x1963 x1964 x1965 x1966
     <chr>        <chr>        <lgl> <lgl> <lgl> <lgl> <lgl> <lgl> <lgl>
   1 Aruba        ABW          NA    NA    NA    NA    NA    NA    NA   
   2 Afghanistan  AFG          NA    NA    NA    NA    NA    NA    NA   
   3 Angola       AGO          NA    NA    NA    NA    NA    NA    NA   
   4 Albania      ALB          NA    NA    NA    NA    NA    NA    NA   
   5 Andorra      AND          NA    NA    NA    NA    NA    NA    NA   
   6 Arab World   ARB          NA    NA    NA    NA    NA    NA    NA   
   7 United Arab… ARE          NA    NA    NA    NA    NA    NA    NA   
   8 Argentina    ARG          NA    NA    NA    NA    NA    NA    NA   
   9 Armenia      ARM          NA    NA    NA    NA    NA    NA    NA   
  10 American Sa… ASM          NA    NA    NA    NA    NA    NA    NA   
  # … with 254 more rows, and 52 more variables: x1967 <lgl>, x1968 <lgl>,
  #   x1969 <lgl>, x1970 <lgl>, x1971 <lgl>, x1972 <lgl>, x1973 <lgl>,
  #   x1974 <lgl>, x1975 <lgl>, x1976 <lgl>, x1977 <lgl>, x1978 <lgl>,
  #   x1979 <lgl>, x1980 <lgl>, x1981 <lgl>, x1982 <lgl>, x1983 <lgl>,
  #   x1984 <lgl>, x1985 <lgl>, x1986 <lgl>, x1987 <lgl>, x1988 <lgl>,
  #   x1989 <lgl>, x1990 <dbl>, x1991 <dbl>, x1992 <dbl>, x1993 <dbl>,
  #   x1994 <dbl>, x1995 <dbl>, x1996 <dbl>, x1997 <dbl>, x1998 <dbl>,
  #   x1999 <dbl>, x2000 <dbl>, x2001 <dbl>, x2002 <dbl>, x2003 <dbl>,
  #   x2004 <dbl>, x2005 <dbl>, x2006 <dbl>, x2007 <dbl>, x2008 <dbl>,
…
```r
wb_percent_forest_raw %>%  
  # change names to snake case
  janitor::clean_names() %>%  
  # get rid of columns that are not variables
  # indicator name and indicator code
  select(-indicator_name, -indicator_code) %>%  
* # suppose you are interested only in 2000 to 2005
* select(country_name, country_code, x2000:x2005)
```
]]
.column[.content[

```
  # A tibble: 264 x 8
     country_name         country_code x2000 x2001 x2002 x2003 x2004 x2005
     <chr>                <chr>        <dbl> <dbl> <dbl> <dbl> <dbl> <dbl>
   1 Aruba                ABW           2.33  2.33  2.33  2.33  2.33  2.33
   2 Afghanistan          AFG           2.07  2.07  2.07  2.07  2.07  2.07
   3 Angola               AGO          47.9  47.8  47.7  47.6  47.5  47.4 
   4 Albania              ALB          28.1  28.2  28.3  28.4  28.5  28.6 
   5 Andorra              AND          34.0  34.0  34.0  34.0  34.0  34.0 
   6 Arab World           ARB           1.68  1.68  1.68  1.69  1.69  1.69
   7 United Arab Emirates ARE           4.36  4.37  4.38  4.38  4.39  4.39
   8 Argentina            ARG          11.6  11.5  11.4  11.3  11.2  11.0 
   9 Armenia              ARM          11.7  11.7  11.7  11.7  11.7  11.7 
  10 American Samoa       ASM          90.2  90.1  89.9  89.8  89.5  89.4 
  # … with 254 more rows
```
…
```
  # A tibble: 1,584 x 4
     country_name         country_code year  percent_forest
     <chr>                <chr>        <chr>          <dbl>
   1 Aruba                ABW          x2000           2.33
   2 Afghanistan          AFG          x2000           2.07
   3 Angola               AGO          x2000          47.9 
   4 Albania              ALB          x2000          28.1 
   5 Andorra              AND          x2000          34.0 
   6 Arab World           ARB          x2000           1.68
   7 United Arab Emirates ARE          x2000           4.36
   8 Argentina            ARG          x2000          11.6 
   9 Armenia              ARM          x2000          11.7 
  10 American Samoa       ASM          x2000          90.2 
  # … with 1,574 more rows
```
…
```
  # A tibble: 1,584 x 4
     country_name         country_code year  percent_forest
     <chr>                <chr>        <chr>          <dbl>
   1 Aruba                ABW          2000            2.33
   2 Afghanistan          AFG          2000            2.07
   3 Angola               AGO          2000           47.9 
   4 Albania              ALB          2000           28.1 
   5 Andorra              AND          2000           34.0 
   6 Arab World           ARB          2000            1.68
   7 United Arab Emirates ARE          2000            4.36
   8 Argentina            ARG          2000           11.6 
   9 Armenia              ARM          2000           11.7 
  10 American Samoa       ASM          2000           90.2 
  # … with 1,574 more rows
```
…
```
  # A tibble: 1,584 x 4
     country_name         country_code  year percent_forest
     <chr>                <chr>        <dbl>          <dbl>
   1 Aruba                ABW           2000           2.33
   2 Afghanistan          AFG           2000           2.07
   3 Angola               AGO           2000          47.9 
   4 Albania              ALB           2000          28.1 
   5 Andorra              AND           2000          34.0 
   6 Arab World           ARB           2000           1.68
   7 United Arab Emirates ARE           2000           4.36
   8 Argentina            ARG           2000          11.6 
   9 Armenia              ARM           2000          11.7 
  10 American Samoa       ASM           2000          90.2 
  # … with 1,574 more rows
```
…
```
  # A tibble: 1,584 x 4
     country_name          country_code  year percent_forest
     <chr>                 <chr>        <dbl>          <dbl>
   1 Suriname              SUR           2000           98.7
   2 Suriname              SUR           2001           98.6
   3 Suriname              SUR           2002           98.6
   4 Suriname              SUR           2003           98.6
   5 Suriname              SUR           2004           98.6
   6 Suriname              SUR           2005           98.5
   7 Micronesia, Fed. Sts. FSM           2005           91.4
   8 Micronesia, Fed. Sts. FSM           2004           91.4
   9 Micronesia, Fed. Sts. FSM           2003           91.3
  10 Micronesia, Fed. Sts. FSM           2002           91.3
  # … with 1,574 more rows
```
…
```
  # A tibble: 1,584 x 4
     country_name          wb_country_code  year percent_forest
     <chr>                 <chr>           <dbl>          <dbl>
   1 Suriname              SUR              2000           98.7
   2 Suriname              SUR              2001           98.6
   3 Suriname              SUR              2002           98.6
   4 Suriname              SUR              2003           98.6
   5 Suriname              SUR              2004           98.6
   6 Suriname              SUR              2005           98.5
   7 Micronesia, Fed. Sts. FSM              2005           91.4
   8 Micronesia, Fed. Sts. FSM              2004           91.4
   9 Micronesia, Fed. Sts. FSM              2003           91.3
  10 Micronesia, Fed. Sts. FSM              2002           91.3
  # … with 1,574 more rows
```
…
```
  # A tibble: 1,584 x 5
     country_name          wb_country_code  year percent_forest continent
     <chr>                 <chr>           <dbl>          <dbl> <chr>    
   1 Suriname              SUR              2000           98.7 Americas 
   2 Suriname              SUR              2001           98.6 Americas 
   3 Suriname              SUR              2002           98.6 Americas 
   4 Suriname              SUR              2003           98.6 Americas 
   5 Suriname              SUR              2004           98.6 Americas 
   6 Suriname              SUR              2005           98.5 Americas 
   7 Micronesia, Fed. Sts. FSM              2005           91.4 Oceania  
   8 Micronesia, Fed. Sts. FSM              2004           91.4 Oceania  
   9 Micronesia, Fed. Sts. FSM              2003           91.3 Oceania  
  10 Micronesia, Fed. Sts. FSM              2002           91.3 Oceania  
  # … with 1,574 more rows
```
…
```r
library(gapminder)  
library(countrycode)  
*gapminder
```
]]
.column[.content[

```
  # A tibble: 1,704 x 6
     country     continent  year lifeExp      pop gdpPercap
     <fct>       <fct>     <int>   <dbl>    <int>     <dbl>
   1 Afghanistan Asia       1952    28.8  8425333      779.
   2 Afghanistan Asia       1957    30.3  9240934      821.
   3 Afghanistan Asia       1962    32.0 10267083      853.
   4 Afghanistan Asia       1967    34.0 11537966      836.
   5 Afghanistan Asia       1972    36.1 13079460      740.
   6 Afghanistan Asia       1977    38.4 14880372      786.
   7 Afghanistan Asia       1982    39.9 12881816      978.
   8 Afghanistan Asia       1987    40.8 13867957      852.
   9 Afghanistan Asia       1992    41.7 16317921      649.
  10 Afghanistan Asia       1997    41.8 22227415      635.
  # … with 1,694 more rows
```
…
