data cleaning flipbook
…
.column[.content[

```r
url <- "https://en.wikipedia.org/wiki/Fishing_industry_by_country"
htmltab::htmltab(doc = url, which = 2) %>%
* as_tibble()
```
]]
.column[.content[

```
  # A tibble: 217 x 4
     Country       Capture    Aquaculture Total     
     <chr>         <chr>      <chr>       <chr>     
   1 China         17,800,000 63,700,000  81,500,000
   2 Indonesia     6,584,419  16,600,000  23,200,000
   3 India         5,082,332  5,703,002   10,800,000
   4 Vietnam       2,785,940  3,634,531   6,420,471 
   5 United States 4,931,017  444,369     5,375,386 
   6 Russia        4,773,413  173,840     4,947,253 
   7 Japan         3,275,263  1,067,994   4,343,257 
   8 Philippines   2,027,992  2,200,914   4,228,906 
   9 Peru          3,811,802  100,187     3,911,989 
  10 Bangladesh    1,674,770  2,203,554   3,878,324 
  # … with 207 more rows
```
…
.column[.content[

```r
url <- "https://en.wikipedia.org/wiki/Fishing_industry_by_country"
htmltab::htmltab(doc = url, which = 2) %>%
  as_tibble() %>%
* janitor::clean_names(case = "snake")
```
]]
.column[.content[

```
  # A tibble: 217 x 4
     country       capture    aquaculture total     
     <chr>         <chr>      <chr>       <chr>     
   1 China         17,800,000 63,700,000  81,500,000
   2 Indonesia     6,584,419  16,600,000  23,200,000
   3 India         5,082,332  5,703,002   10,800,000
   4 Vietnam       2,785,940  3,634,531   6,420,471 
   5 United States 4,931,017  444,369     5,375,386 
   6 Russia        4,773,413  173,840     4,947,253 
   7 Japan         3,275,263  1,067,994   4,343,257 
   8 Philippines   2,027,992  2,200,914   4,228,906 
   9 Peru          3,811,802  100,187     3,911,989 
  10 Bangladesh    1,674,770  2,203,554   3,878,324 
  # … with 207 more rows
```
…
```r
url <- "https://en.wikipedia.org/wiki/Fishing_industry_by_country"
htmltab::htmltab(doc = url, which = 2) %>%
  as_tibble() %>%
  janitor::clean_names(case = "snake") %>%
* mutate(capture =
*          str_replace_all(string = capture,
*                          pattern = ",",
*                          replacement = ""))
```
]]
.column[.content[

```
  # A tibble: 217 x 4
     country       capture  aquaculture total     
     <chr>         <chr>    <chr>       <chr>     
   1 China         17800000 63,700,000  81,500,000
   2 Indonesia     6584419  16,600,000  23,200,000
   3 India         5082332  5,703,002   10,800,000
   4 Vietnam       2785940  3,634,531   6,420,471 
   5 United States 4931017  444,369     5,375,386 
   6 Russia        4773413  173,840     4,947,253 
   7 Japan         3275263  1,067,994   4,343,257 
   8 Philippines   2027992  2,200,914   4,228,906 
   9 Peru          3811802  100,187     3,911,989 
  10 Bangladesh    1674770  2,203,554   3,878,324 
  # … with 207 more rows
```
…
```
  # A tibble: 217 x 4
     country        capture aquaculture total     
     <chr>            <dbl> <chr>       <chr>     
   1 China         17800000 63,700,000  81,500,000
   2 Indonesia      6584419 16,600,000  23,200,000
   3 India          5082332 5,703,002   10,800,000
   4 Vietnam        2785940 3,634,531   6,420,471 
   5 United States  4931017 444,369     5,375,386 
   6 Russia         4773413 173,840     4,947,253 
   7 Japan          3275263 1,067,994   4,343,257 
   8 Philippines    2027992 2,200,914   4,228,906 
   9 Peru           3811802 100,187     3,911,989 
  10 Bangladesh     1674770 2,203,554   3,878,324 
  # … with 207 more rows
```
…
```
  # A tibble: 217 x 4
     country        capture aquaculture total     
     <chr>            <dbl> <chr>       <chr>     
   1 China         17800000 63700000    81,500,000
   2 Indonesia      6584419 16600000    23,200,000
   3 India          5082332 5703002     10,800,000
   4 Vietnam        2785940 3634531     6,420,471 
   5 United States  4931017 444369      5,375,386 
   6 Russia         4773413 173840      4,947,253 
   7 Japan          3275263 1067994     4,343,257 
   8 Philippines    2027992 2200914     4,228,906 
   9 Peru           3811802 100187      3,911,989 
  10 Bangladesh     1674770 2203554     3,878,324 
  # … with 207 more rows
```
…
```
  # A tibble: 217 x 4
     country        capture aquaculture total     
     <chr>            <dbl>       <dbl> <chr>     
   1 China         17800000    63700000 81,500,000
   2 Indonesia      6584419    16600000 23,200,000
   3 India          5082332     5703002 10,800,000
   4 Vietnam        2785940     3634531 6,420,471 
   5 United States  4931017      444369 5,375,386 
   6 Russia         4773413      173840 4,947,253 
   7 Japan          3275263     1067994 4,343,257 
   8 Philippines    2027992     2200914 4,228,906 
   9 Peru           3811802      100187 3,911,989 
  10 Bangladesh     1674770     2203554 3,878,324 
  # … with 207 more rows
```
…
```
  # A tibble: 217 x 4
     country        capture aquaculture total   
     <chr>            <dbl>       <dbl> <chr>   
   1 China         17800000    63700000 81500000
   2 Indonesia      6584419    16600000 23200000
   3 India          5082332     5703002 10800000
   4 Vietnam        2785940     3634531 6420471 
   5 United States  4931017      444369 5375386 
   6 Russia         4773413      173840 4947253 
   7 Japan          3275263     1067994 4343257 
   8 Philippines    2027992     2200914 4228906 
   9 Peru           3811802      100187 3911989 
  10 Bangladesh     1674770     2203554 3878324 
  # … with 207 more rows
```
…
```
  # A tibble: 217 x 4
     country        capture aquaculture    total
     <chr>            <dbl>       <dbl>    <dbl>
   1 China         17800000    63700000 81500000
   2 Indonesia      6584419    16600000 23200000
   3 India          5082332     5703002 10800000
   4 Vietnam        2785940     3634531  6420471
   5 United States  4931017      444369  5375386
   6 Russia         4773413      173840  4947253
   7 Japan          3275263     1067994  4343257
   8 Philippines    2027992     2200914  4228906
   9 Peru           3811802      100187  3911989
  10 Bangladesh     1674770     2203554  3878324
  # … with 207 more rows
```
…
```
  # A tibble: 217 x 4
     country        capture aquaculture    total
     <chr>            <dbl>       <dbl>    <dbl>
   1 China         17800000    63700000 81500000
   2 Indonesia      6584419    16600000 23200000
   3 India          5082332     5703002 10800000
   4 Vietnam        2785940     3634531  6420471
   5 United States  4931017      444369  5375386
   6 Russia         4773413      173840  4947253
   7 Japan          3275263     1067994  4343257
   8 Philippines    2027992     2200914  4228906
   9 Peru           3811802      100187  3911989
  10 Bangladesh     1674770     2203554  3878324
  # … with 207 more rows
```
…
```
  # A tibble: 216 x 4
     country        capture aquaculture    total
     <chr>            <dbl>       <dbl>    <dbl>
   1 China         17800000    63700000 81500000
   2 Indonesia      6584419    16600000 23200000
   3 India          5082332     5703002 10800000
   4 Vietnam        2785940     3634531  6420471
   5 United States  4931017      444369  5375386
   6 Russia         4773413      173840  4947253
   7 Japan          3275263     1067994  4343257
   8 Philippines    2027992     2200914  4228906
   9 Peru           3811802      100187  3911989
  10 Bangladesh     1674770     2203554  3878324
  # … with 206 more rows
```
…
