data from a pdf
…
]]

---

```
  # A tibble: 44 x 8
     text  status campaign date       num_killed weapon unclaimed
     <chr> <chr>  <chr>    <date>          <dbl> <chr>  <lgl>    
   1 Appe Compl Campaig NA               2001 <NA>   FALSE    
   2 comb Compl Campaig NA                 NA <NA>   FALSE    
   3 best Compl Campaig NA                 NA <NA>   FALSE    
   4 more Compl Campaig NA                 NA <NA>   FALSE    
   5 exac Compl Campaig NA                 NA <NA>   FALSE    
   6 stil Compl Campaig NA                 NA <NA>   FALSE    
   7 coul Compl Campaig NA                 NA <NA>   FALSE    
   8 (Kau Compl Campaig NA               1998 <NA>   FALSE    
   9 very Compl Campaig NA                 NA <NA>   FALSE    
  10 sett Compl Campaig NA                 NA <NA>   FALSE    
  #  with 34 more rows, and 1 more variable: num_killed_notes <chr>
```
…
```r
  #read back in to parse
# as a vector of values separated by \n  # as a vector of values separated by \n
read_lines("data_products/temp.txt") %>%  
  .[46:length(text)] %>%  
  str_trim() %>%  
  str_replace_all(pattern = "\\s+",  
                  replacement = " ") %>%  
* tibble()
```
]]
.column[.content[

```
  # A tibble: 46 x 1
     .                                                                       
     <chr>                                                                   
   1 Completed Campaigns                                                     
   2 Date Weapon Target Killed*                                              
   3 Appendix: Suicide Terrorist Campaigns, 1980-2001                        
   4 combined strategy: abandoning territory on the West well increase the n
   5 best course to improve Israel's security may well be a to recognize tha
   6 more recruits for terrorist organizations. Instead, the terrorist opera
   7 exacerbate the conditions of occupation that cultivate political system
   8 still greater gains while greater repression may only volve conquering 
   9 could well encourage terrorists leaders to strive for should give pause
  10 (Kaufmann 1998). As a result, territorial concessions suicide terrorist
  #  with 36 more rows
```
…
```
  # A tibble: 46 x 1
     text                                                                    
     <chr>                                                                   
   1 Completed Campaigns                                                     
   2 Date Weapon Target Killed*                                              
   3 Appendix: Suicide Terrorist Campaigns, 1980-2001                        
   4 combined strategy: abandoning territory on the West well increase the n
   5 best course to improve Israel's security may well be a to recognize tha
   6 more recruits for terrorist organizations. Instead, the terrorist opera
   7 exacerbate the conditions of occupation that cultivate political system
   8 still greater gains while greater repression may only volve conquering 
   9 could well encourage terrorists leaders to strive for should give pause
  10 (Kaufmann 1998). As a result, territorial concessions suicide terrorist
  #  with 36 more rows
```
…
```
  # A tibble: 46 x 2
     text                                                     status         
     <chr>                                                    <chr>          
   1 Completed Campaigns                                      Completed Camp
   2 Date Weapon Target Killed*                               <NA>           
   3 Appendix: Suicide Terrorist Campaigns, 1980-2001         <NA>           
   4 combined strategy: abandoning territory on the West wel <NA>           
   5 best course to improve Israel's security may well be a  <NA>           
   6 more recruits for terrorist organizations. Instead, the <NA>           
   7 exacerbate the conditions of occupation that cultivate  <NA>           
   8 still greater gains while greater repression may only v <NA>           
   9 could well encourage terrorists leaders to strive for s <NA>           
  10 (Kaufmann 1998). As a result, territorial concessions s <NA>           
  #  with 36 more rows
```
…
```
  # A tibble: 46 x 2
     text                                                     status         
     <chr>                                                    <chr>          
   1 Completed Campaigns                                      Completed Camp
   2 Date Weapon Target Killed*                               Completed Camp
   3 Appendix: Suicide Terrorist Campaigns, 1980-2001         Completed Camp
   4 combined strategy: abandoning territory on the West wel Completed Camp
   5 best course to improve Israel's security may well be a  Completed Camp
   6 more recruits for terrorist organizations. Instead, the Completed Camp
   7 exacerbate the conditions of occupation that cultivate  Completed Camp
   8 still greater gains while greater repression may only v Completed Camp
   9 could well encourage terrorists leaders to strive for s Completed Camp
  10 (Kaufmann 1998). As a result, territorial concessions s Completed Camp
  #  with 36 more rows
```
…
```
  # A tibble: 45 x 2
     text                                                     status         
     <chr>                                                    <chr>          
   1 Date Weapon Target Killed*                               Completed Camp
   2 Appendix: Suicide Terrorist Campaigns, 1980-2001         Completed Camp
   3 combined strategy: abandoning territory on the West wel Completed Camp
   4 best course to improve Israel's security may well be a  Completed Camp
   5 more recruits for terrorist organizations. Instead, the Completed Camp
   6 exacerbate the conditions of occupation that cultivate  Completed Camp
   7 still greater gains while greater repression may only v Completed Camp
   8 could well encourage terrorists leaders to strive for s Completed Camp
   9 (Kaufmann 1998). As a result, territorial concessions s Completed Camp
  10 very intensive Israeli border control efforts ineffecti Completed Camp
  #  with 35 more rows
```
…
```
  # A tibble: 45 x 2
     text                                                             status 
     <chr>                                                            <chr>  
   1 Date Weapon Target Killed*                                       Comple
   2 Appendix: Suicide Terrorist Campaigns, 1980-2001                 Comple
   3 combined strategy: abandoning territory on the West well increa Comple
   4 best course to improve Israel's security may well be a to recog Comple
   5 more recruits for terrorist organizations. Instead, the terrori Comple
   6 exacerbate the conditions of occupation that cultivate politica Comple
   7 still greater gains while greater repression may only volve con Comple
   8 could well encourage terrorists leaders to strive for should gi Comple
   9 (Kaufmann 1998). As a result, territorial concessions suicide t Comple
  10 very intensive Israeli border control efforts ineffective tween Comple
  #  with 35 more rows
```
…
```
  # A tibble: 45 x 3
     text                                             status  campaign       
     <chr>                                            <chr>   <chr>          
   1 Date Weapon Target Killed*                       Comple <NA>           
   2 Appendix: Suicide Terrorist Campaigns, 1980-2001 Comple Campaigns, 198
   3 combined strategy: abandoning territory on the  Comple <NA>           
   4 best course to improve Israel's security may we Comple <NA>           
   5 more recruits for terrorist organizations. Inst Comple <NA>           
   6 exacerbate the conditions of occupation that cu Comple <NA>           
   7 still greater gains while greater repression ma Comple <NA>           
   8 could well encourage terrorists leaders to stri Comple <NA>           
   9 (Kaufmann 1998). As a result, territorial conce Comple <NA>           
  10 very intensive Israeli border control efforts i Comple <NA>           
  #  with 35 more rows
```
…
```
  # A tibble: 45 x 3
     text                                             status  campaign       
     <chr>                                            <chr>   <chr>          
   1 Date Weapon Target Killed*                       Comple <NA>           
   2 Appendix: Suicide Terrorist Campaigns, 1980-2001 Comple Campaigns, 198
   3 combined strategy: abandoning territory on the  Comple Campaigns, 198
   4 best course to improve Israel's security may we Comple Campaigns, 198
   5 more recruits for terrorist organizations. Inst Comple Campaigns, 198
   6 exacerbate the conditions of occupation that cu Comple Campaigns, 198
   7 still greater gains while greater repression ma Comple Campaigns, 198
   8 could well encourage terrorists leaders to stri Comple Campaigns, 198
   9 (Kaufmann 1998). As a result, territorial conce Comple Campaigns, 198
  10 very intensive Israeli border control efforts i Comple Campaigns, 198
  #  with 35 more rows
```
…
```
  # A tibble: 44 x 3
     text                                             status  campaign       
     <chr>                                            <chr>   <chr>          
   1 Appendix: Suicide Terrorist Campaigns, 1980-2001 Comple Campaigns, 198
   2 combined strategy: abandoning territory on the  Comple Campaigns, 198
   3 best course to improve Israel's security may we Comple Campaigns, 198
   4 more recruits for terrorist organizations. Inst Comple Campaigns, 198
   5 exacerbate the conditions of occupation that cu Comple Campaigns, 198
   6 still greater gains while greater repression ma Comple Campaigns, 198
   7 could well encourage terrorists leaders to stri Comple Campaigns, 198
   8 (Kaufmann 1998). As a result, territorial conce Comple Campaigns, 198
   9 very intensive Israeli border control efforts i Comple Campaigns, 198
  10 settled areas practically infinite and have ren Comple Campaigns, 198
  #  with 34 more rows
```
…
```
  # A tibble: 44 x 4
     text                            status  campaign     date               
     <chr>                           <chr>   <chr>        <chr>              
   1 Appendix: Suicide Terrorist Ca Comple Campaigns,  Appendix: Suicide 
   2 combined strategy: abandoning  Comple Campaigns,  <NA>               
   3 best course to improve Israel' Comple Campaigns,  <NA>               
   4 more recruits for terrorist or Comple Campaigns,  <NA>               
   5 exacerbate the conditions of o Comple Campaigns,  <NA>               
   6 still greater gains while grea Comple Campaigns,  <NA>               
   7 could well encourage terrorist Comple Campaigns,  <NA>               
   8 (Kaufmann 1998). As a result,  Comple Campaigns,  Kaufmann 1998      
   9 very intensive Israeli border  Comple Campaigns,  <NA>               
  10 settled areas practically infi Comple Campaigns,  <NA>               
  #  with 34 more rows
```
…
```
  # A tibble: 44 x 4
     text                                    status  campaign      date      
     <chr>                                   <chr>   <chr>         <date>    
   1 Appendix: Suicide Terrorist Campaigns, Comple Campaigns, 1 NA        
   2 combined strategy: abandoning territor Comple Campaigns, 1 NA        
   3 best course to improve Israel's securi Comple Campaigns, 1 NA        
   4 more recruits for terrorist organizati Comple Campaigns, 1 NA        
   5 exacerbate the conditions of occupatio Comple Campaigns, 1 NA        
   6 still greater gains while greater repr Comple Campaigns, 1 NA        
   7 could well encourage terrorists leader Comple Campaigns, 1 NA        
   8 (Kaufmann 1998). As a result, territor Comple Campaigns, 1 NA        
   9 very intensive Israeli border control  Comple Campaigns, 1 NA        
  10 settled areas practically infinite and Comple Campaigns, 1 NA        
  #  with 34 more rows
```
…
```
  # A tibble: 44 x 4
     text                                    status  campaign      date      
     <chr>                                   <chr>   <chr>         <date>    
   1 Appendix: Suicide Terrorist Campaigns, Comple Campaigns, 1 NA        
   2 combined strategy: abandoning territor Comple Campaigns, 1 NA        
   3 best course to improve Israel's securi Comple Campaigns, 1 NA        
   4 more recruits for terrorist organizati Comple Campaigns, 1 NA        
   5 exacerbate the conditions of occupatio Comple Campaigns, 1 NA        
   6 still greater gains while greater repr Comple Campaigns, 1 NA        
   7 could well encourage terrorists leader Comple Campaigns, 1 NA        
   8 (Kaufmann 1998). As a result, territor Comple Campaigns, 1 NA        
   9 very intensive Israeli border control  Comple Campaigns, 1 NA        
  10 settled areas practically infinite and Comple Campaigns, 1 NA        
  #  with 34 more rows
```
…
```
  # A tibble: 44 x 5
     text                          status  campaign     date       num_killed
     <chr>                         <chr>   <chr>        <date>          <dbl>
   1 Appendix: Suicide Terrorist  Comple Campaigns,  NA               2001
   2 combined strategy: abandonin Comple Campaigns,  NA                 NA
   3 best course to improve Israe Comple Campaigns,  NA                 NA
   4 more recruits for terrorist  Comple Campaigns,  NA                 NA
   5 exacerbate the conditions of Comple Campaigns,  NA                 NA
   6 still greater gains while gr Comple Campaigns,  NA                 NA
   7 could well encourage terrori Comple Campaigns,  NA                 NA
   8 (Kaufmann 1998). As a result Comple Campaigns,  NA               1998
   9 very intensive Israeli borde Comple Campaigns,  NA                 NA
  10 settled areas practically in Comple Campaigns,  NA                 NA
  #  with 34 more rows
```
…
```
  # A tibble: 44 x 6
     text                     status campaign    date       num_killed weapon
     <chr>                    <chr>  <chr>       <date>          <dbl> <chr> 
   1 Appendix: Suicide Terro Compl Campaigns, NA               2001 <NA>  
   2 combined strategy: aban Compl Campaigns, NA                 NA <NA>  
   3 best course to improve  Compl Campaigns, NA                 NA <NA>  
   4 more recruits for terro Compl Campaigns, NA                 NA <NA>  
   5 exacerbate the conditio Compl Campaigns, NA                 NA <NA>  
   6 still greater gains whi Compl Campaigns, NA                 NA <NA>  
   7 could well encourage te Compl Campaigns, NA                 NA <NA>  
   8 (Kaufmann 1998). As a r Compl Campaigns, NA               1998 <NA>  
   9 very intensive Israeli  Compl Campaigns, NA                 NA <NA>  
  10 settled areas practical Compl Campaigns, NA                 NA <NA>  
  #  with 34 more rows
```
…
```
  # A tibble: 44 x 6
     text                     status campaign    date       num_killed weapon
     <chr>                    <chr>  <chr>       <date>          <dbl> <chr> 
   1 Appendix: Suicide Terro Compl Campaigns, NA               2001 <NA>  
   2 combined strategy: aban Compl Campaigns, NA                 NA <NA>  
   3 best course to improve  Compl Campaigns, NA                 NA <NA>  
   4 more recruits for terro Compl Campaigns, NA                 NA <NA>  
   5 exacerbate the conditio Compl Campaigns, NA                 NA <NA>  
   6 still greater gains whi Compl Campaigns, NA                 NA <NA>  
   7 could well encourage te Compl Campaigns, NA                 NA <NA>  
   8 (Kaufmann 1998). As a r Compl Campaigns, NA               1998 <NA>  
   9 very intensive Israeli  Compl Campaigns, NA                 NA <NA>  
  10 settled areas practical Compl Campaigns, NA                 NA <NA>  
  #  with 34 more rows
```
…
```
  # A tibble: 44 x 7
     text            status  campaign  date       num_killed weapon unclaimed
     <chr>           <chr>   <chr>     <date>          <dbl> <chr>  <lgl>    
   1 Appendix: Suic Comple Campaign NA               2001 <NA>   FALSE    
   2 combined strat Comple Campaign NA                 NA <NA>   FALSE    
   3 best course to Comple Campaign NA                 NA <NA>   FALSE    
   4 more recruits  Comple Campaign NA                 NA <NA>   FALSE    
   5 exacerbate the Comple Campaign NA                 NA <NA>   FALSE    
   6 still greater  Comple Campaign NA                 NA <NA>   FALSE    
   7 could well enc Comple Campaign NA                 NA <NA>   FALSE    
   8 (Kaufmann 1998 Comple Campaign NA               1998 <NA>   FALSE    
   9 very intensive Comple Campaign NA                 NA <NA>   FALSE    
  10 settled areas  Comple Campaign NA                 NA <NA>   FALSE    
  #  with 34 more rows
```
…
```
  # A tibble: 44 x 8
     text  status campaign date       num_killed weapon unclaimed
     <chr> <chr>  <chr>    <date>          <dbl> <chr>  <lgl>    
   1 Appe Compl Campaig NA               2001 <NA>   FALSE    
   2 comb Compl Campaig NA                 NA <NA>   FALSE    
   3 best Compl Campaig NA                 NA <NA>   FALSE    
   4 more Compl Campaig NA                 NA <NA>   FALSE    
   5 exac Compl Campaig NA                 NA <NA>   FALSE    
   6 stil Compl Campaig NA                 NA <NA>   FALSE    
   7 coul Compl Campaig NA                 NA <NA>   FALSE    
   8 (Kau Compl Campaig NA               1998 <NA>   FALSE    
   9 very Compl Campaig NA                 NA <NA>   FALSE    
  10 sett Compl Campaig NA                 NA <NA>   FALSE    
  #  with 34 more rows, and 1 more variable: num_killed_notes <chr>
```
…
```
  # A tibble: 44 x 8
     text  status campaign date       num_killed weapon unclaimed
     <chr> <chr>  <chr>    <date>          <dbl> <chr>  <lgl>    
   1 Appe Compl Campaig NA               2001 <NA>   FALSE    
   2 comb Compl Campaig NA                 NA <NA>   FALSE    
   3 best Compl Campaig NA                 NA <NA>   FALSE    
   4 more Compl Campaig NA                 NA <NA>   FALSE    
   5 exac Compl Campaig NA                 NA <NA>   FALSE    
   6 stil Compl Campaig NA                 NA <NA>   FALSE    
   7 coul Compl Campaig NA                 NA <NA>   FALSE    
   8 (Kau Compl Campaig NA               1998 <NA>   FALSE    
   9 very Compl Campaig NA                 NA <NA>   FALSE    
  10 sett Compl Campaig NA                 NA <NA>   FALSE    
  #  with 34 more rows, and 1 more variable: num_killed_notes <chr>
```
…
```
  # A tibble: 44 x 8
     text  status campaign date       num_killed weapon unclaimed
     <chr> <chr>  <chr>    <date>          <dbl> <chr>  <lgl>    
   1 Appe Compl Campaig NA               2001 <NA>   FALSE    
   2 comb Compl Campaig NA                 NA <NA>   FALSE    
   3 best Compl Campaig NA                 NA <NA>   FALSE    
   4 more Compl Campaig NA                 NA <NA>   FALSE    
   5 exac Compl Campaig NA                 NA <NA>   FALSE    
   6 stil Compl Campaig NA                 NA <NA>   FALSE    
   7 coul Compl Campaig NA                 NA <NA>   FALSE    
   8 (Kau Compl Campaig NA               1998 <NA>   FALSE    
   9 very Compl Campaig NA                 NA <NA>   FALSE    
  10 sett Compl Campaig NA                 NA <NA>   FALSE    
  #  with 34 more rows, and 1 more variable: num_killed_notes <chr>
```
…
