Ein Zielloserspaziergangsweihnachtsbaum
…
```
# A tibble: 60,000 x 4
      id  time displace cum_displace
   <int> <int>    <dbl>        <dbl>
 1     1     1    0            0    
 2     1     2    1.24         1.24 
 3     1     3   -0.179        1.06 
 4     1     4   -0.404        0.657
 5     1     5    0.975        1.63 
 6     1     6    0.214        1.85 
 7     1     7    2.23         4.07 
 8     1     8   -0.505        3.57 
 9     1     9   -1.41         2.16 
10     1    10    1.00         3.17 
# … with 59,990 more rows
```
…
.column[.content[

```r
set.seed(93478)  
library(tidyverse)  
* # generate random walk
*tibble(id = 1:400)
```
]]
.column[.content[

```
# A tibble: 400 x 1
      id
   <int>
 1     1
 2     2
 3     3
 4     4
 5     5
 6     6
 7     7
 8     8
 9     9
10    10
# … with 390 more rows
```
…
.column[.content[

```r
set.seed(93478)  
library(tidyverse)  
  # generate random walk
tibble(id = 1:400) %>%  
* crossing(time = 1:150)
```
]]
.column[.content[

```
# A tibble: 60,000 x 2
      id  time
   <int> <int>
 1     1     1
 2     1     2
 3     1     3
 4     1     4
 5     1     5
 6     1     6
 7     1     7
 8     1     8
 9     1     9
10     1    10
# … with 59,990 more rows
```
…
.column[.content[

```r
set.seed(93478)  
library(tidyverse)  
  # generate random walk
tibble(id = 1:400) %>%  
  crossing(time = 1:150) %>%  
* mutate(displace = rnorm(n = dplyr::n()))
```
]]
.column[.content[

```
# A tibble: 60,000 x 3
      id  time displace
   <int> <int>    <dbl>
 1     1     1  -0.0970
 2     1     2   1.24  
 3     1     3  -0.179 
 4     1     4  -0.404 
 5     1     5   0.975 
 6     1     6   0.214 
 7     1     7   2.23  
 8     1     8  -0.505 
 9     1     9  -1.41  
10     1    10   1.00  
# … with 59,990 more rows
```
…
```
# A tibble: 60,000 x 3
      id  time displace
   <int> <int>    <dbl>
 1     1     1    0    
 2     1     2    1.24 
 3     1     3   -0.179
 4     1     4   -0.404
 5     1     5    0.975
 6     1     6    0.214
 7     1     7    2.23 
 8     1     8   -0.505
 9     1     9   -1.41 
10     1    10    1.00 
# … with 59,990 more rows
```
…
```
# A tibble: 60,000 x 3
# Groups:   id [400]
      id  time displace
   <int> <int>    <dbl>
 1     1     1    0    
 2     1     2    1.24 
 3     1     3   -0.179
 4     1     4   -0.404
 5     1     5    0.975
 6     1     6    0.214
 7     1     7    2.23 
 8     1     8   -0.505
 9     1     9   -1.41 
10     1    10    1.00 
# … with 59,990 more rows
```
…
```
# A tibble: 60,000 x 4
# Groups:   id [400]
      id  time displace cum_displace
   <int> <int>    <dbl>        <dbl>
 1     1     1    0            0    
 2     1     2    1.24         1.24 
 3     1     3   -0.179        1.06 
 4     1     4   -0.404        0.657
 5     1     5    0.975        1.63 
 6     1     6    0.214        1.85 
 7     1     7    2.23         4.07 
 8     1     8   -0.505        3.57 
 9     1     9   -1.41         2.16 
10     1    10    1.00         3.17 
# … with 59,990 more rows
```
…
```
# A tibble: 60,000 x 4
      id  time displace cum_displace
   <int> <int>    <dbl>        <dbl>
 1     1     1    0            0    
 2     1     2    1.24         1.24 
 3     1     3   -0.179        1.06 
 4     1     4   -0.404        0.657
 5     1     5    0.975        1.63 
 6     1     6    0.214        1.85 
 7     1     7    2.23         4.07 
 8     1     8   -0.505        3.57 
 9     1     9   -1.41         2.16 
10     1    10    1.00         3.17 
# … with 59,990 more rows
```
…
