Minimal Galton Board
…
.column[.content[

```r
set.seed(2019)
*crossing(unit_id = 1:n,
*        level = 1:levels - 1)
```
]]
.column[.content.center[

```
# A tibble: 1,175 x 2
   unit_id level
     <int> <dbl>
 1       1     0
 2       1     1
 3       1     2
 4       1     3
 5       1     4
 6       1     5
 7       1     6
 8       1     7
 9       1     8
10       1     9
# … with 1,165 more rows
```
…
```r
set.seed(2019)
crossing(unit_id = 1:n,
         level = 1:levels - 1) %>%
* mutate(perturbation =  # moves
*          sample(c(-1,1),  # left or right
*                 n(),  # each ball at each level
*                 replace = T))
```
]]
.column[.content.center[

```
# A tibble: 1,175 x 3
   unit_id level perturbation
     <int> <dbl>        <dbl>
 1       1     0            1
 2       1     1            1
 3       1     2           -1
 4       1     3            1
 5       1     4           -1
 6       1     5           -1
 7       1     6            1
 8       1     7           -1
 9       1     8           -1
10       1     9            1
# … with 1,165 more rows
```
…
```r
set.seed(2019)
crossing(unit_id = 1:n,
         level = 1:levels - 1) %>%
  mutate(perturbation =  # moves
           sample(c(-1,1),  # left or right
                  n(),  # each ball at each level
                  replace = T)) %>%
* group_by(unit_id)   # operations on each ball
```
]]
.column[.content.center[

```
# A tibble: 1,175 x 3
# Groups:   unit_id [25]
   unit_id level perturbation
     <int> <dbl>        <dbl>
 1       1     0            1
 2       1     1            1
 3       1     2           -1
 4       1     3            1
 5       1     4           -1
 6       1     5           -1
 7       1     6            1
 8       1     7           -1
 9       1     8           -1
10       1     9            1
# … with 1,165 more rows
```
…
```
# A tibble: 1,175 x 3
# Groups:   unit_id [25]
   unit_id level perturbation
     <int> <dbl>        <dbl>
 1       1     0            0
 2       1     1            1
 3       1     2           -1
 4       1     3            1
 5       1     4           -1
 6       1     5           -1
 7       1     6            1
 8       1     7           -1
 9       1     8           -1
10       1     9            1
# … with 1,165 more rows
```
…
```
# A tibble: 1,175 x 4
# Groups:   unit_id [25]
   unit_id level perturbation  time
     <int> <dbl>        <dbl> <dbl>
 1       1     0            0     3
 2       1     1            1     4
 3       1     2           -1     5
 4       1     3            1     6
 5       1     4           -1     7
 6       1     5           -1     8
 7       1     6            1     9
 8       1     7           -1    10
 9       1     8           -1    11
10       1     9            1    12
# … with 1,165 more rows
```
…
```
# A tibble: 1,175 x 4
# Groups:   unit_id [25]
   unit_id level perturbation  time
     <int> <dbl>        <dbl> <dbl>
 1       1     0            0     3
 2       1     1            1     4
 3       1     2           -1     5
 4       1     3            1     6
 5       1     4           -1     7
 6       1     5           -1     8
 7       1     6            1     9
 8       1     7           -1    10
 9       1     8           -1    11
10       1     9            1    12
# … with 1,165 more rows
```
…
```
# A tibble: 1,175 x 5
# Groups:   unit_id [25]
   unit_id level perturbation  time x_position
     <int> <dbl>        <dbl> <dbl>      <dbl>
 1       1     0            0     3          0
 2       1     1            1     4          1
 3       1     2           -1     5          0
 4       1     3            1     6          1
 5       1     4           -1     7          0
 6       1     5           -1     8         -1
 7       1     6            1     9          0
 8       1     7           -1    10         -1
 9       1     8           -1    11         -2
10       1     9            1    12         -1
# … with 1,165 more rows
```
…
```
# A tibble: 1,175 x 5
# Groups:   unit_id [25]
   unit_id level perturbation  time x_position
     <int> <dbl>        <dbl> <dbl>      <dbl>
 1       1     0            0     3          0
 2       1     1            1     4          1
 3       1     2           -1     5          0
 4       1     3            1     6          1
 5       1     4           -1     7          0
 6       1     5           -1     8         -1
 7       1     6            1     9          0
 8       1     7           -1    10         -1
 9       1     8           -1    11         -2
10       1     9            1    12         -1
# … with 1,165 more rows
```
…
```
# A tibble: 1,175 x 5
# Groups:   unit_id [25]
   unit_id level perturbation  time x_position
     <int> <dbl>        <dbl> <dbl>      <dbl>
 1       1     0            0     3          0
 2       1     1            1     4          1
 3       1     2           -1     5          0
 4       1     3            1     6          1
 5       1     4           -1     7          0
 6       1     5           -1     8         -1
 7       1     6            1     9          0
 8       1     7           -1    10         -1
 9       1     8           -1    11         -2
10       1     9            1    12         -1
# … with 1,165 more rows
```
…
```
# A tibble: 1,175 x 5
   unit_id level perturbation  time x_position
     <int> <dbl>        <dbl> <dbl>      <dbl>
 1       1     0            0     3          0
 2       1     1            1     4          1
 3       1     2           -1     5          0
 4       1     3            1     6          1
 5       1     4           -1     7          0
 6       1     5           -1     8         -1
 7       1     6            1     9          0
 8       1     7           -1    10         -1
 9       1     8           -1    11         -2
10       1     9            1    12         -1
# … with 1,165 more rows
```
…
.column[.content[

```r
* # Lets make some pegs
*crossing(unit_id =
*          (-sqrt(n)*2):(sqrt(n)*2),
*        level = 1:stop_level)
```
]]
.column[.content.center[

```
# A tibble: 252 x 2
   unit_id level
     <int> <int>
 1     -10     1
 2     -10     2
 3     -10     3
 4     -10     4
 5     -10     5
 6     -10     6
 7     -10     7
 8     -10     8
 9     -10     9
10     -10    10
# … with 242 more rows
```
…
.column[.content[

```r
  # Lets make some pegs
crossing(unit_id =
           (-sqrt(n)*2):(sqrt(n)*2),
         level = 1:stop_level) %>%
* mutate(transparent =
*          (unit_id + level) %% 2)
```
]]
.column[.content.center[

```
# A tibble: 252 x 3
   unit_id level transparent
     <int> <int>       <dbl>
 1     -10     1           1
 2     -10     2           0
 3     -10     3           1
 4     -10     4           0
 5     -10     5           1
 6     -10     6           0
 7     -10     7           1
 8     -10     8           0
 9     -10     9           1
10     -10    10           0
# … with 242 more rows
```
…
```
# A tibble: 756 x 2
   unit_id level
     <int> <int>
 1     -10    12
 2     -10    13
 3     -10    14
 4     -10    15
 5     -10    16
 6     -10    17
 7     -10    18
 8     -10    19
 9     -10    20
10     -10    21
# … with 746 more rows
```
…
```
# A tibble: 756 x 3
   unit_id level transparent
     <int> <int>       <dbl>
 1     -10    12           0
 2     -10    13           0
 3     -10    14           0
 4     -10    15           0
 5     -10    16           0
 6     -10    17           0
 7     -10    18           0
 8     -10    19           0
 9     -10    20           0
10     -10    21           0
# … with 746 more rows
```
…
.column[.content[

```r
set.seed(1999)
n_balls <- 1000
n_perturb <- 200
*crossing(ball_id = 1:n_balls,
*        1:n_perturb)
```
]]
.column[.content.center[

```
# A tibble: 200,000 x 2
   ball_id `1:n_perturb`
     <int>         <int>
 1       1             1
 2       1             2
 3       1             3
 4       1             4
 5       1             5
 6       1             6
 7       1             7
 8       1             8
 9       1             9
10       1            10
# … with 199,990 more rows
```
…
```
# A tibble: 200,000 x 3
   ball_id `1:n_perturb` perturbation
     <int>         <int>        <dbl>
 1       1             1            1
 2       1             2            1
 3       1             3           -1
 4       1             4           -1
 5       1             5            1
 6       1             6            1
 7       1             7            1
 8       1             8            1
 9       1             9            1
10       1            10            1
# … with 199,990 more rows
```
…
```
# A tibble: 200,000 x 3
# Groups:   ball_id [1,000]
   ball_id `1:n_perturb` perturbation
     <int>         <int>        <dbl>
 1       1             1            1
 2       1             2            1
 3       1             3           -1
 4       1             4           -1
 5       1             5            1
 6       1             6            1
 7       1             7            1
 8       1             8            1
 9       1             9            1
10       1            10            1
# … with 199,990 more rows
```
…
```
# A tibble: 1,000 x 2
   ball_id x_position
     <int>      <dbl>
 1       1         30
 2       2         20
 3       3         12
 4       4         -8
 5       5         -8
 6       6         10
 7       7         20
 8       8         12
 9       9          4
10      10         24
# … with 990 more rows
```
…
